[H[2J[0;91mHello, rakeshr1. today is, Mon Jun  3 23:01:02 PDT 2013
[1;33m
     June 2013        
Su Mo Tu We Th Fr Sa  
                   1  
 2 _ _3  4  5  6  7  8  
 9 10 11 12 13 14 15  
16 17 18 19 20 21 22  
23 24 25 26 27 28 29  
30                    

[1;35mSysinfo: 23:01:02 up 217 days, 13:40,  0 users,  load average: 10.43, 10.04, 8.72

[H] Starting zsim, version built on Thu May 10 11:30:55 2012
[H] Creating global segment, 1024 MBs
[H] Global segment shmid = 78053382
[H] Deadlock detection ON
[S 0] Started instance
[S 0] Limiting concurrent threads to 1
[S 0] Started RR scheduler, quantum=10000 phases
[S 0] Initialized system
[S 0] HDF5 backend: Opening /vgates/horowitz/users/rakeshr1/spring/ee282-pa2/exercise-3/part-b/blackscholes_narrow_11_11_1700_L1_32_4_L2_2048_8_L3_8192_16_MEMBW_6400/zsim-ev.h5
[S 0] HDF5 backend: Created table, 3896 bytes/record, 34 records/write
[S 0] HDF5 backend: Opening /vgates/horowitz/users/rakeshr1/spring/ee282-pa2/exercise-3/part-b/blackscholes_narrow_11_11_1700_L1_32_4_L2_2048_8_L3_8192_16_MEMBW_6400/zsim-cmp.h5
[S 0] HDF5 backend: Created table, 776 bytes/record, 1 records/write
[S 0] Initialization complete
[S 0] Started process, PID 28933
[S 0] procMask: 0x0
[S 0] FF thread 0 starting
[S 0] FF control Thread TID 28937
[S 0] Started scheduler watchdog thread
[S 0] vsyscall/vdso intercept: patching gettimeofday on /lib/x86_64-linux-gnu/libc.so.6
[S 0] vsyscall/vdso intercept: patching time on /lib/x86_64-linux-gnu/libc.so.6
PARSEC Benchmark Suite
[S 0] ROI_BEGIN, exiting fast-forward
[S 0] Adjusted time forward 2744217 usecs (clock domain 0)
[S 0] Adjusted RDTSC forward 6387233279 ticks (clock domain 0)
[S 0] Thread 0 starting
[S 0] Thread 3 starting
[S 0] Thread 4 starting
[S 0] Thread 5 starting
[S 0] Thread 6 starting
[S 0] Thread 7 starting
[S 0] Thread 8 starting
[S 0] Thread 9 starting
[S 0] Thread 10 starting
[S 0] Thread 11 starting
[S 0] Thread 12 starting
[H] Attached to global heap
[S 0] Max total (aggregate) instructions reached (5000187077)
[S 0] Termination condition met, exiting
[H] Child 28933 done
[H] All children done, exiting
Cores                  : 11
Frequency (MHz)        : 1700
Voltage (V)            : 1.0341
Area (mm^2)            : 266

Time (s)               : .58900000000000000000
Total energy (J)       : 26.90761262178529623034
Energy-Delay Product   : 15.84858383423153947967

Core dynamic energy (J): 3.09948796112172783034
Core static energy (J) : 3.04545495424500000000
L1 dynamic energy (J)  : .08121001876359840000
L1 static energy (J)   : .24633870690000000000
L2 dynamic energy (J)  : .00313347615225000000
L2 static energy (J)   : 14.61804938000000000000
L3 dynamic energy (J)  : .00599851460272000000
L3 static energy (J)   : 5.21939994000000000000
Mem dynamic energy (J) : .55871860000000000000
Mem static energy (J)  : .02982107000000000000
