# zsim stats
===
root: # Stats
 contention: # Contention simulation stats
  domain-0: # Domain stats
   time: 1334188966 # Weave simulation time
 time: # Simulator time breakdown
  init: 1791167586
  bound: 482684484137
  weave: 2694194114
  ff: 0
 trigger: 20000 # Reason for this stats dump
 phase: 45764 # Simulated phases
 core: # Core stats
  core-0: # Core stats
   cycles: 4575074516 # Simulated unhalted cycles
   cCycles: 0 # Cycles due to contention stalls
   instrs: 3294089947 # Simulated instructions
   uops: 4028450922 # Retired micro-ops
   bbls: 517260293 # Basic blocks
   approxInstrs: 127 # Instrs with approx uop decoding
   mispredBranches: 2536526 # Mispredicted branches
   fetchStalls: 43406086 # Fetch stalls
   decodeStalls: 1705646761 # Decode stalls
   issueStalls: 164095441 # Issue stalls
  core-1: # Core stats
   cycles: 2934361162 # Simulated unhalted cycles
   cCycles: 0 # Cycles due to contention stalls
   instrs: 1706010736 # Simulated instructions
   uops: 1948472802 # Retired micro-ops
   bbls: 246080483 # Basic blocks
   approxInstrs: 116 # Instrs with approx uop decoding
   mispredBranches: 2335615 # Mispredicted branches
   fetchStalls: 39894466 # Fetch stalls
   decodeStalls: 486384098 # Decode stalls
   issueStalls: 3429816 # Issue stalls
 l1i: # Cache stats
  l1i-0: # Filter cache stats
   fhGETS: 527991252 # Filtered GETS hits
   fhGETX: 0 # Filtered GETX hits
   hGETS: 347 # GETS hits
   hGETX: 0 # GETX hits
   mGETS: 14909 # GETS misses
   mGETXIM: 0 # GETX I->M misses
   mGETXSM: 0 # GETX S->M misses (upgrade misses)
   PUTS: 0 # Clean evictions (from lower level)
   PUTX: 0 # Dirty evictions (from lower level)
   INV: 14888 # Invalidates (from upper level)
   INVX: 0 # Downgrades (from upper level)
   FWD: 0 # Forwards (from upper level)
   latGETnl: 617829 # GET request latency on next level
   latGETnet: 0 # GET request latency on network to next level
  l1i-1: # Filter cache stats
   fhGETS: 255410829 # Filtered GETS hits
   fhGETX: 0 # Filtered GETX hits
   hGETS: 65 # GETS hits
   hGETX: 0 # GETX hits
   mGETS: 12072 # GETS misses
   mGETXIM: 0 # GETX I->M misses
   mGETXSM: 0 # GETX S->M misses (upgrade misses)
   PUTS: 0 # Clean evictions (from lower level)
   PUTX: 0 # Dirty evictions (from lower level)
   INV: 12067 # Invalidates (from upper level)
   INVX: 0 # Downgrades (from upper level)
   FWD: 0 # Forwards (from upper level)
   latGETnl: 375454 # GET request latency on next level
   latGETnet: 0 # GET request latency on network to next level
 l1d: # Cache stats
  l1d-0: # Filter cache stats
   fhGETS: 876072387 # Filtered GETS hits
   fhGETX: 271737098 # Filtered GETX hits
   hGETS: 30714728 # GETS hits
   hGETX: 3742697 # GETX hits
   mGETS: 19132250 # GETS misses
   mGETXIM: 2005427 # GETX I->M misses
   mGETXSM: 16840 # GETX S->M misses (upgrade misses)
   PUTS: 0 # Clean evictions (from lower level)
   PUTX: 0 # Dirty evictions (from lower level)
   INV: 25450 # Invalidates (from upper level)
   INVX: 859 # Downgrades (from upper level)
   FWD: 0 # Forwards (from upper level)
   latGETnl: 3218471833 # GET request latency on next level
   latGETnet: 0 # GET request latency on network to next level
  l1d-1: # Filter cache stats
   fhGETS: 437887615 # Filtered GETS hits
   fhGETX: 2747825 # Filtered GETX hits
   hGETS: 29413247 # GETS hits
   hGETX: 494166 # GETX hits
   mGETS: 17595466 # GETS misses
   mGETXIM: 201973 # GETX I->M misses
   mGETXSM: 453 # GETX S->M misses (upgrade misses)
   PUTS: 0 # Clean evictions (from lower level)
   PUTX: 0 # Dirty evictions (from lower level)
   INV: 23784 # Invalidates (from upper level)
   INVX: 1785 # Downgrades (from upper level)
   FWD: 0 # Forwards (from upper level)
   latGETnl: 2813138182 # GET request latency on next level
   latGETnet: 0 # GET request latency on network to next level
 l2: # Cache stats
  l2-0: # Cache stats
   hGETS: 239387 # GETS hits
   hGETX: 6 # GETX hits
   mGETS: 18907772 # GETS misses
   mGETXIM: 2005421 # GETX I->M misses
   mGETXSM: 16840 # GETX S->M misses (upgrade misses)
   PUTS: 17615176 # Clean evictions (from lower level)
   PUTX: 3496555 # Dirty evictions (from lower level)
   INV: 456 # Invalidates (from upper level)
   INVX: 9544 # Downgrades (from upper level)
   FWD: 0 # Forwards (from upper level)
   latGETnl: 3049734254 # GET request latency on next level
   latGETnet: 0 # GET request latency on network to next level
  l2-1: # Cache stats
   hGETS: 7869 # GETS hits
   hGETX: 0 # GETX hits
   mGETS: 17599669 # GETS misses
   mGETXIM: 201973 # GETX I->M misses
   mGETXSM: 453 # GETX S->M misses (upgrade misses)
   PUTS: 17252056 # Clean evictions (from lower level)
   PUTX: 521087 # Dirty evictions (from lower level)
   INV: 17368 # Invalidates (from upper level)
   INVX: 27072 # Downgrades (from upper level)
   FWD: 0 # Forwards (from upper level)
   latGETnl: 2671033924 # GET request latency on next level
   latGETnet: 0 # GET request latency on network to next level
 l3: # Cache stats
  l3-0: # Cache stats
   hGETS: 1290195 # GETS hits
   hGETX: 34937 # GETX hits
   mGETS: 35217246 # GETS misses
   mGETXIM: 2189750 # GETX I->M misses
   mGETXSM: 0 # GETX S->M misses (upgrade misses)
   PUTS: 34888792 # Clean evictions (from lower level)
   PUTX: 3791835 # Dirty evictions (from lower level)
   INV: 0 # Invalidates (from upper level)
   INVX: 0 # Downgrades (from upper level)
   FWD: 0 # Forwards (from upper level)
   latGETnl: 5061875302 # GET request latency on next level
   latGETnet: 0 # GET request latency on network to next level
 mem: # Memory controller stats
  mem-0: # Memory controller stats
   rd: 37406996 # Read requests
   wr: 3127254 # Write requests
   rdlat: 5061875302 # Total latency experienced by read requests
   wrlat: 430996795 # Total latency experienced by write requests
   load: 661493 # Sum of load factors (0-100) per update
   ups: 45278 # Number of latency updates
   clampedLoads: 19 # Number of updates where the load was clamped to 95%
 sched: # Scheduler stats
  thCr: 2 # Threads created
  thFn: 0 # Threads finished
  schedEvs: 2 # Schedule events
  waitEvs: 0 # Wait events
  handoffEvs: 0 # Handoff events
  sleepEvs: 0 # Sleep events
  idlePhases: 0 # Phases with no thread active
  idlePeriods: 0 # Periods with no thread active
  occHist: # Occupancy histogram
   0: 0
   1: 14796
   2: 30968
  rqSzHist: # Run queue size histogram
   0: 45764
   1: 0
   2: 0
   3: 0
   4: 0
   5: 0
   6: 0
   7: 0
   8: 0
   9: 0
   10: 0
   11: 0
   12: 0
   13: 0
   14: 0
   15: 0
   16: 0
 heartbeats: # Per-process heartbeats
  0: 0
  1: 0
  2: 0
  3: 0
  4: 0
  5: 0
  6: 0
  7: 0
  8: 0
  9: 0
  10: 0
  11: 0
  12: 0
  13: 0
  14: 0
  15: 0
  16: 0
  17: 0
  18: 0
  19: 0
  20: 0
  21: 0
  22: 0
  23: 0
  24: 0
  25: 0
  26: 0
  27: 0
  28: 0
  29: 0
  30: 0
  31: 0
  32: 0
  33: 0
  34: 0
  35: 0
  36: 0
  37: 0
  38: 0
  39: 0
  40: 0
  41: 0
  42: 0
  43: 0
  44: 0
  45: 0
  46: 0
  47: 0
  48: 0
  49: 0
  50: 0
  51: 0
  52: 0
  53: 0
  54: 0
  55: 0
  56: 0
  57: 0
  58: 0
  59: 0
  60: 0
  61: 0
  62: 0
  63: 0
===
