# zsim stats
===
root: # Stats
 contention: # Contention simulation stats
  domain-0: # Domain stats
   time: 220558079 # Weave simulation time
 time: # Simulator time breakdown
  init: 2141563790
  bound: 485066073779
  weave: 660106282
  ff: 0
 trigger: 20000 # Reason for this stats dump
 phase: 4047 # Simulated phases
 core: # Core stats
  core-0: # Core stats
   cycles: 392279974 # Simulated unhalted cycles
   cCycles: 0 # Cycles due to contention stalls
   instrs: 625668564 # Simulated instructions
   uops: 769253241 # Retired micro-ops
   bbls: 94915778 # Basic blocks
   approxInstrs: 310 # Instrs with approx uop decoding
   mispredBranches: 2163961 # Mispredicted branches
   fetchStalls: 37082861 # Fetch stalls
   decodeStalls: 197280158 # Decode stalls
   issueStalls: 37741147 # Issue stalls
  core-1: # Core stats
   cycles: 392034043 # Simulated unhalted cycles
   cCycles: 0 # Cycles due to contention stalls
   instrs: 624764145 # Simulated instructions
   uops: 768225768 # Retired micro-ops
   bbls: 94763853 # Basic blocks
   approxInstrs: 297 # Instrs with approx uop decoding
   mispredBranches: 2145419 # Mispredicted branches
   fetchStalls: 36764695 # Fetch stalls
   decodeStalls: 197039295 # Decode stalls
   issueStalls: 37616138 # Issue stalls
  core-2: # Core stats
   cycles: 388753580 # Simulated unhalted cycles
   cCycles: 0 # Cycles due to contention stalls
   instrs: 619107574 # Simulated instructions
   uops: 761300338 # Retired micro-ops
   bbls: 93900231 # Basic blocks
   approxInstrs: 329 # Instrs with approx uop decoding
   mispredBranches: 2119691 # Mispredicted branches
   fetchStalls: 36317089 # Fetch stalls
   decodeStalls: 195270022 # Decode stalls
   issueStalls: 37266946 # Issue stalls
  core-3: # Core stats
   cycles: 389575374 # Simulated unhalted cycles
   cCycles: 0 # Cycles due to contention stalls
   instrs: 620264393 # Simulated instructions
   uops: 762659396 # Retired micro-ops
   bbls: 94098476 # Basic blocks
   approxInstrs: 326 # Instrs with approx uop decoding
   mispredBranches: 2137412 # Mispredicted branches
   fetchStalls: 36619084 # Fetch stalls
   decodeStalls: 195601372 # Decode stalls
   issueStalls: 37247179 # Issue stalls
  core-4: # Core stats
   cycles: 393733878 # Simulated unhalted cycles
   cCycles: 0 # Cycles due to contention stalls
   instrs: 627329104 # Simulated instructions
   uops: 771367770 # Retired micro-ops
   bbls: 95164464 # Basic blocks
   approxInstrs: 281 # Instrs with approx uop decoding
   mispredBranches: 2155864 # Mispredicted branches
   fetchStalls: 36932198 # Fetch stalls
   decodeStalls: 197843532 # Decode stalls
   issueStalls: 37728184 # Issue stalls
  core-5: # Core stats
   cycles: 392783767 # Simulated unhalted cycles
   cCycles: 0 # Cycles due to contention stalls
   instrs: 626282920 # Simulated instructions
   uops: 770152349 # Retired micro-ops
   bbls: 94974770 # Basic blocks
   approxInstrs: 248 # Instrs with approx uop decoding
   mispredBranches: 2130031 # Mispredicted branches
   fetchStalls: 36490650 # Fetch stalls
   decodeStalls: 197555547 # Decode stalls
   issueStalls: 37718570 # Issue stalls
  core-6: # Core stats
   cycles: 393980365 # Simulated unhalted cycles
   cCycles: 0 # Cycles due to contention stalls
   instrs: 627995417 # Simulated instructions
   uops: 772255344 # Retired micro-ops
   bbls: 95232789 # Basic blocks
   approxInstrs: 245 # Instrs with approx uop decoding
   mispredBranches: 2134965 # Mispredicted branches
   fetchStalls: 36584400 # Fetch stalls
   decodeStalls: 198093268 # Decode stalls
   issueStalls: 37823353 # Issue stalls
  core-7: # Core stats
   cycles: 394706349 # Simulated unhalted cycles
   cCycles: 0 # Cycles due to contention stalls
   instrs: 628939414 # Simulated instructions
   uops: 773480332 # Retired micro-ops
   bbls: 95358938 # Basic blocks
   approxInstrs: 225 # Instrs with approx uop decoding
   mispredBranches: 2119188 # Mispredicted branches
   fetchStalls: 36308159 # Fetch stalls
   decodeStalls: 198428345 # Decode stalls
   issueStalls: 37881674 # Issue stalls
 l1i: # Cache stats
  l1i-0: # Filter cache stats
   fhGETS: 111114744 # Filtered GETS hits
   fhGETX: 0 # Filtered GETX hits
   hGETS: 1601863 # GETS hits
   hGETX: 0 # GETX hits
   mGETS: 58450 # GETS misses
   mGETXIM: 0 # GETX I->M misses
   mGETXSM: 0 # GETX S->M misses (upgrade misses)
   PUTS: 0 # Clean evictions (from lower level)
   PUTX: 0 # Dirty evictions (from lower level)
   INV: 0 # Invalidates (from upper level)
   INVX: 0 # Downgrades (from upper level)
   FWD: 0 # Forwards (from upper level)
   latGETnl: 503531 # GET request latency on next level
   latGETnet: 0 # GET request latency on network to next level
  l1i-1: # Filter cache stats
   fhGETS: 110880291 # Filtered GETS hits
   fhGETX: 0 # Filtered GETX hits
   hGETS: 1599318 # GETS hits
   hGETX: 0 # GETX hits
   mGETS: 58682 # GETS misses
   mGETXIM: 0 # GETX I->M misses
   mGETXSM: 0 # GETX S->M misses (upgrade misses)
   PUTS: 0 # Clean evictions (from lower level)
   PUTX: 0 # Dirty evictions (from lower level)
   INV: 0 # Invalidates (from upper level)
   INVX: 0 # Downgrades (from upper level)
   FWD: 0 # Forwards (from upper level)
   latGETnl: 502256 # GET request latency on next level
   latGETnet: 0 # GET request latency on network to next level
  l1i-2: # Filter cache stats
   fhGETS: 109844693 # Filtered GETS hits
   fhGETX: 0 # Filtered GETX hits
   hGETS: 1586232 # GETS hits
   hGETX: 0 # GETX hits
   mGETS: 58558 # GETS misses
   mGETXIM: 0 # GETX I->M misses
   mGETXSM: 0 # GETX S->M misses (upgrade misses)
   PUTS: 0 # Clean evictions (from lower level)
   PUTX: 0 # Dirty evictions (from lower level)
   INV: 0 # Invalidates (from upper level)
   INVX: 0 # Downgrades (from upper level)
   FWD: 0 # Forwards (from upper level)
   latGETnl: 490357 # GET request latency on next level
   latGETnet: 0 # GET request latency on network to next level
  l1i-3: # Filter cache stats
   fhGETS: 110127472 # Filtered GETS hits
   fhGETX: 0 # Filtered GETX hits
   hGETS: 1587990 # GETS hits
   hGETX: 0 # GETX hits
   mGETS: 58500 # GETS misses
   mGETXIM: 0 # GETX I->M misses
   mGETXSM: 0 # GETX S->M misses (upgrade misses)
   PUTS: 0 # Clean evictions (from lower level)
   PUTX: 0 # Dirty evictions (from lower level)
   INV: 0 # Invalidates (from upper level)
   INVX: 0 # Downgrades (from upper level)
   FWD: 0 # Forwards (from upper level)
   latGETnl: 481199 # GET request latency on next level
   latGETnet: 0 # GET request latency on network to next level
  l1i-4: # Filter cache stats
   fhGETS: 111356047 # Filtered GETS hits
   fhGETX: 0 # Filtered GETX hits
   hGETS: 1602980 # GETS hits
   hGETX: 0 # GETX hits
   mGETS: 59219 # GETS misses
   mGETXIM: 0 # GETX I->M misses
   mGETXSM: 0 # GETX S->M misses (upgrade misses)
   PUTS: 0 # Clean evictions (from lower level)
   PUTX: 0 # Dirty evictions (from lower level)
   INV: 0 # Invalidates (from upper level)
   INVX: 0 # Downgrades (from upper level)
   FWD: 0 # Forwards (from upper level)
   latGETnl: 482031 # GET request latency on next level
   latGETnet: 0 # GET request latency on network to next level
  l1i-5: # Filter cache stats
   fhGETS: 111056565 # Filtered GETS hits
   fhGETX: 0 # Filtered GETX hits
   hGETS: 1596501 # GETS hits
   hGETX: 0 # GETX hits
   mGETS: 59379 # GETS misses
   mGETXIM: 0 # GETX I->M misses
   mGETXSM: 0 # GETX S->M misses (upgrade misses)
   PUTS: 0 # Clean evictions (from lower level)
   PUTX: 0 # Dirty evictions (from lower level)
   INV: 0 # Invalidates (from upper level)
   INVX: 0 # Downgrades (from upper level)
   FWD: 0 # Forwards (from upper level)
   latGETnl: 484646 # GET request latency on next level
   latGETnet: 0 # GET request latency on network to next level
  l1i-6: # Filter cache stats
   fhGETS: 111357607 # Filtered GETS hits
   fhGETX: 0 # Filtered GETX hits
   hGETS: 1598276 # GETS hits
   hGETX: 0 # GETX hits
   mGETS: 59289 # GETS misses
   mGETXIM: 0 # GETX I->M misses
   mGETXSM: 0 # GETX S->M misses (upgrade misses)
   PUTS: 0 # Clean evictions (from lower level)
   PUTX: 0 # Dirty evictions (from lower level)
   INV: 0 # Invalidates (from upper level)
   INVX: 0 # Downgrades (from upper level)
   FWD: 0 # Forwards (from upper level)
   latGETnl: 499870 # GET request latency on next level
   latGETnet: 0 # GET request latency on network to next level
  l1i-7: # Filter cache stats
   fhGETS: 111436648 # Filtered GETS hits
   fhGETX: 0 # Filtered GETX hits
   hGETS: 1597063 # GETS hits
   hGETX: 0 # GETX hits
   mGETS: 60288 # GETS misses
   mGETXIM: 0 # GETX I->M misses
   mGETXSM: 0 # GETX S->M misses (upgrade misses)
   PUTS: 0 # Clean evictions (from lower level)
   PUTX: 0 # Dirty evictions (from lower level)
   INV: 0 # Invalidates (from upper level)
   INVX: 0 # Downgrades (from upper level)
   FWD: 0 # Forwards (from upper level)
   latGETnl: 491145 # GET request latency on next level
   latGETnet: 0 # GET request latency on network to next level
 l1d: # Cache stats
  l1d-0: # Filter cache stats
   fhGETS: 169055016 # Filtered GETS hits
   fhGETX: 43449404 # Filtered GETX hits
   hGETS: 10257840 # GETS hits
   hGETX: 9980111 # GETX hits
   mGETS: 1329906 # GETS misses
   mGETXIM: 1387978 # GETX I->M misses
   mGETXSM: 45335 # GETX S->M misses (upgrade misses)
   PUTS: 0 # Clean evictions (from lower level)
   PUTX: 0 # Dirty evictions (from lower level)
   INV: 89860 # Invalidates (from upper level)
   INVX: 30044 # Downgrades (from upper level)
   FWD: 0 # Forwards (from upper level)
   latGETnl: 29176901 # GET request latency on next level
   latGETnet: 0 # GET request latency on network to next level
  l1d-1: # Filter cache stats
   fhGETS: 168923739 # Filtered GETS hits
   fhGETX: 43164780 # Filtered GETX hits
   hGETS: 10235931 # GETS hits
   hGETX: 10150295 # GETX hits
   mGETS: 1275986 # GETS misses
   mGETXIM: 1433808 # GETX I->M misses
   mGETXSM: 51289 # GETX S->M misses (upgrade misses)
   PUTS: 0 # Clean evictions (from lower level)
   PUTX: 0 # Dirty evictions (from lower level)
   INV: 108218 # Invalidates (from upper level)
   INVX: 34394 # Downgrades (from upper level)
   FWD: 0 # Forwards (from upper level)
   latGETnl: 30141835 # GET request latency on next level
   latGETnet: 0 # GET request latency on network to next level
  l1d-2: # Filter cache stats
   fhGETS: 167166262 # Filtered GETS hits
   fhGETX: 42728117 # Filtered GETX hits
   hGETS: 10326929 # GETS hits
   hGETX: 10097370 # GETX hits
   mGETS: 1330761 # GETS misses
   mGETXIM: 1426428 # GETX I->M misses
   mGETXSM: 55223 # GETX S->M misses (upgrade misses)
   PUTS: 0 # Clean evictions (from lower level)
   PUTX: 0 # Dirty evictions (from lower level)
   INV: 111716 # Invalidates (from upper level)
   INVX: 37146 # Downgrades (from upper level)
   FWD: 0 # Forwards (from upper level)
   latGETnl: 31077495 # GET request latency on next level
   latGETnet: 0 # GET request latency on network to next level
  l1d-3: # Filter cache stats
   fhGETS: 166584903 # Filtered GETS hits
   fhGETX: 42811306 # Filtered GETX hits
   hGETS: 11196511 # GETS hits
   hGETX: 10125712 # GETX hits
   mGETS: 1322748 # GETS misses
   mGETXIM: 1415327 # GETX I->M misses
   mGETXSM: 52252 # GETX S->M misses (upgrade misses)
   PUTS: 0 # Clean evictions (from lower level)
   PUTX: 0 # Dirty evictions (from lower level)
   INV: 102340 # Invalidates (from upper level)
   INVX: 34707 # Downgrades (from upper level)
   FWD: 0 # Forwards (from upper level)
   latGETnl: 30232131 # GET request latency on next level
   latGETnet: 0 # GET request latency on network to next level
  l1d-4: # Filter cache stats
   fhGETS: 167238318 # Filtered GETS hits
   fhGETX: 41494294 # Filtered GETX hits
   hGETS: 12573877 # GETS hits
   hGETX: 12036082 # GETX hits
   mGETS: 1346312 # GETS misses
   mGETXIM: 1447643 # GETX I->M misses
   mGETXSM: 51451 # GETX S->M misses (upgrade misses)
   PUTS: 0 # Clean evictions (from lower level)
   PUTX: 0 # Dirty evictions (from lower level)
   INV: 103912 # Invalidates (from upper level)
   INVX: 36167 # Downgrades (from upper level)
   FWD: 0 # Forwards (from upper level)
   latGETnl: 30632422 # GET request latency on next level
   latGETnet: 0 # GET request latency on network to next level
  l1d-5: # Filter cache stats
   fhGETS: 167944963 # Filtered GETS hits
   fhGETX: 41517313 # Filtered GETX hits
   hGETS: 11647924 # GETS hits
   hGETX: 11863702 # GETX hits
   mGETS: 1327191 # GETS misses
   mGETXIM: 1505944 # GETX I->M misses
   mGETXSM: 52478 # GETX S->M misses (upgrade misses)
   PUTS: 0 # Clean evictions (from lower level)
   PUTX: 0 # Dirty evictions (from lower level)
   INV: 108814 # Invalidates (from upper level)
   INVX: 35435 # Downgrades (from upper level)
   FWD: 0 # Forwards (from upper level)
   latGETnl: 31207079 # GET request latency on next level
   latGETnet: 0 # GET request latency on network to next level
  l1d-6: # Filter cache stats
   fhGETS: 169219278 # Filtered GETS hits
   fhGETX: 43290959 # Filtered GETX hits
   hGETS: 10837739 # GETS hits
   hGETX: 10278372 # GETX hits
   mGETS: 1350472 # GETS misses
   mGETXIM: 1468706 # GETX I->M misses
   mGETXSM: 52727 # GETX S->M misses (upgrade misses)
   PUTS: 0 # Clean evictions (from lower level)
   PUTX: 0 # Dirty evictions (from lower level)
   INV: 110617 # Invalidates (from upper level)
   INVX: 35344 # Downgrades (from upper level)
   FWD: 0 # Forwards (from upper level)
   latGETnl: 30970308 # GET request latency on next level
   latGETnet: 0 # GET request latency on network to next level
  l1d-7: # Filter cache stats
   fhGETS: 170335346 # Filtered GETS hits
   fhGETX: 43393627 # Filtered GETX hits
   hGETS: 10045869 # GETS hits
   hGETX: 10199880 # GETX hits
   mGETS: 1351852 # GETS misses
   mGETXIM: 1532884 # GETX I->M misses
   mGETXSM: 55033 # GETX S->M misses (upgrade misses)
   PUTS: 0 # Clean evictions (from lower level)
   PUTX: 0 # Dirty evictions (from lower level)
   INV: 121228 # Invalidates (from upper level)
   INVX: 36252 # Downgrades (from upper level)
   FWD: 0 # Forwards (from upper level)
   latGETnl: 31972371 # GET request latency on next level
   latGETnet: 0 # GET request latency on network to next level
 l2: # Cache stats
  l2-0: # Cache stats
   hGETS: 1331702 # GETS hits
   hGETX: 1228087 # GETX hits
   mGETS: 56654 # GETS misses
   mGETXIM: 158668 # GETX I->M misses
   mGETXSM: 46558 # GETX S->M misses (upgrade misses)
   PUTS: 1298181 # Clean evictions (from lower level)
   PUTX: 1387303 # Dirty evictions (from lower level)
   INV: 213345 # Invalidates (from upper level)
   INVX: 47466 # Downgrades (from upper level)
   FWD: 0 # Forwards (from upper level)
   latGETnl: 7107080 # GET request latency on next level
   latGETnet: 0 # GET request latency on network to next level
  l2-1: # Cache stats
   hGETS: 1271509 # GETS hits
   hGETX: 1250384 # GETX hits
   mGETS: 63159 # GETS misses
   mGETXIM: 182365 # GETX I->M misses
   mGETXSM: 52348 # GETX S->M misses (upgrade misses)
   PUTS: 1244138 # Clean evictions (from lower level)
   PUTX: 1415175 # Dirty evictions (from lower level)
   INV: 243840 # Invalidates (from upper level)
   INVX: 53561 # Downgrades (from upper level)
   FWD: 0 # Forwards (from upper level)
   latGETnl: 8085971 # GET request latency on next level
   latGETnet: 0 # GET request latency on network to next level
  l2-2: # Cache stats
   hGETS: 1324417 # GETS hits
   hGETX: 1228419 # GETX hits
   mGETS: 64902 # GETS misses
   mGETXIM: 196585 # GETX I->M misses
   mGETXSM: 56647 # GETX S->M misses (upgrade misses)
   PUTS: 1300627 # Clean evictions (from lower level)
   PUTX: 1402459 # Dirty evictions (from lower level)
   INV: 259748 # Invalidates (from upper level)
   INVX: 57863 # Downgrades (from upper level)
   FWD: 0 # Forwards (from upper level)
   latGETnl: 8600092 # GET request latency on next level
   latGETnet: 0 # GET request latency on network to next level
  l2-3: # Cache stats
   hGETS: 1318133 # GETS hits
   hGETX: 1236530 # GETX hits
   mGETS: 63115 # GETS misses
   mGETXIM: 176735 # GETX I->M misses
   mGETXSM: 54314 # GETX S->M misses (upgrade misses)
   PUTS: 1280716 # Clean evictions (from lower level)
   PUTX: 1412588 # Dirty evictions (from lower level)
   INV: 238294 # Invalidates (from upper level)
   INVX: 55199 # Downgrades (from upper level)
   FWD: 0 # Forwards (from upper level)
   latGETnl: 7922714 # GET request latency on next level
   latGETnet: 0 # GET request latency on network to next level
  l2-4: # Cache stats
   hGETS: 1344368 # GETS hits
   hGETX: 1267313 # GETX hits
   mGETS: 61163 # GETS misses
   mGETXIM: 177644 # GETX I->M misses
   mGETXSM: 54137 # GETX S->M misses (upgrade misses)
   PUTS: 1313788 # Clean evictions (from lower level)
   PUTX: 1434550 # Dirty evictions (from lower level)
   INV: 237235 # Invalidates (from upper level)
   INVX: 55180 # Downgrades (from upper level)
   FWD: 0 # Forwards (from upper level)
   latGETnl: 7877453 # GET request latency on next level
   latGETnet: 0 # GET request latency on network to next level
  l2-5: # Cache stats
   hGETS: 1325932 # GETS hits
   hGETX: 1318245 # GETX hits
   mGETS: 60638 # GETS misses
   mGETXIM: 186885 # GETX I->M misses
   mGETXSM: 53292 # GETX S->M misses (upgrade misses)
   PUTS: 1299989 # Clean evictions (from lower level)
   PUTX: 1482782 # Dirty evictions (from lower level)
   INV: 245897 # Invalidates (from upper level)
   INVX: 54370 # Downgrades (from upper level)
   FWD: 0 # Forwards (from upper level)
   latGETnl: 8131789 # GET request latency on next level
   latGETnet: 0 # GET request latency on network to next level
  l2-6: # Cache stats
   hGETS: 1349009 # GETS hits
   hGETX: 1286138 # GETX hits
   mGETS: 60752 # GETS misses
   mGETXIM: 181923 # GETX I->M misses
   mGETXSM: 53372 # GETX S->M misses (upgrade misses)
   PUTS: 1307203 # Clean evictions (from lower level)
   PUTX: 1459725 # Dirty evictions (from lower level)
   INV: 241112 # Invalidates (from upper level)
   INVX: 53962 # Downgrades (from upper level)
   FWD: 0 # Forwards (from upper level)
   latGETnl: 8020626 # GET request latency on next level
   latGETnet: 0 # GET request latency on network to next level
  l2-7: # Cache stats
   hGETS: 1349322 # GETS hits
   hGETX: 1337222 # GETX hits
   mGETS: 62818 # GETS misses
   mGETXIM: 195050 # GETX I->M misses
   mGETXSM: 55645 # GETX S->M misses (upgrade misses)
   PUTS: 1298728 # Clean evictions (from lower level)
   PUTX: 1524155 # Dirty evictions (from lower level)
   INV: 256331 # Invalidates (from upper level)
   INVX: 55925 # Downgrades (from upper level)
   FWD: 0 # Forwards (from upper level)
   latGETnl: 8463060 # GET request latency on next level
   latGETnet: 0 # GET request latency on network to next level
 l3: # Cache stats
  l3-0: # Cache stats
   hGETS: 491772 # GETS hits
   hGETX: 1876873 # GETX hits
   mGETS: 1429 # GETS misses
   mGETXIM: 5295 # GETX I->M misses
   mGETXSM: 0 # GETX S->M misses (upgrade misses)
   PUTS: 0 # Clean evictions (from lower level)
   PUTX: 0 # Dirty evictions (from lower level)
   INV: 0 # Invalidates (from upper level)
   INVX: 0 # Downgrades (from upper level)
   FWD: 0 # Forwards (from upper level)
   latGETnl: 851532 # GET request latency on next level
   latGETnet: 0 # GET request latency on network to next level
 mem: # Memory controller stats
  mem-0: # Memory controller stats
   rd: 6724 # Read requests
   wr: 0 # Write requests
   rdlat: 851532 # Total latency experienced by read requests
   wrlat: 0 # Total latency experienced by write requests
   load: 88 # Sum of load factors (0-100) per update
   ups: 71 # Number of latency updates
   clampedLoads: 0 # Number of updates where the load was clamped to 95%
 sched: # Scheduler stats
  thCr: 8 # Threads created
  thFn: 0 # Threads finished
  schedEvs: 8 # Schedule events
  waitEvs: 0 # Wait events
  handoffEvs: 0 # Handoff events
  sleepEvs: 0 # Sleep events
  idlePhases: 0 # Phases with no thread active
  idlePeriods: 0 # Periods with no thread active
  occHist: # Occupancy histogram
   0: 0
   1: 0
   2: 0
   3: 0
   4: 0
   5: 1
   6: 0
   7: 0
   8: 4046
  rqSzHist: # Run queue size histogram
   0: 4047
   1: 0
   2: 0
   3: 0
   4: 0
   5: 0
   6: 0
   7: 0
   8: 0
   9: 0
   10: 0
   11: 0
   12: 0
   13: 0
   14: 0
   15: 0
   16: 0
 heartbeats: # Per-process heartbeats
  0: 0
  1: 0
  2: 0
  3: 0
  4: 0
  5: 0
  6: 0
  7: 0
  8: 0
  9: 0
  10: 0
  11: 0
  12: 0
  13: 0
  14: 0
  15: 0
  16: 0
  17: 0
  18: 0
  19: 0
  20: 0
  21: 0
  22: 0
  23: 0
  24: 0
  25: 0
  26: 0
  27: 0
  28: 0
  29: 0
  30: 0
  31: 0
  32: 0
  33: 0
  34: 0
  35: 0
  36: 0
  37: 0
  38: 0
  39: 0
  40: 0
  41: 0
  42: 0
  43: 0
  44: 0
  45: 0
  46: 0
  47: 0
  48: 0
  49: 0
  50: 0
  51: 0
  52: 0
  53: 0
  54: 0
  55: 0
  56: 0
  57: 0
  58: 0
  59: 0
  60: 0
  61: 0
  62: 0
  63: 0
===
