# zsim stats
===
root: # Stats
 contention: # Contention simulation stats
  domain-0: # Domain stats
   time: 426868751 # Weave simulation time
 time: # Simulator time breakdown
  init: 15944193763
  bound: 476604149701
  weave: 705101147
  ff: 0
 trigger: 20000 # Reason for this stats dump
 phase: 17349 # Simulated phases
 core: # Core stats
  core-0: # Core stats
   cycles: 1734900006 # Simulated unhalted cycles
   cCycles: 0 # Cycles due to contention stalls
   instrs: 2498341530 # Simulated instructions
   uops: 3089067462 # Retired micro-ops
   bbls: 268860026 # Basic blocks
   approxInstrs: 4 # Instrs with approx uop decoding
   mispredBranches: 817045 # Mispredicted branches
   fetchStalls: 13984367 # Fetch stalls
   decodeStalls: 949990083 # Decode stalls
   issueStalls: 72523204 # Issue stalls
  core-1: # Core stats
   cycles: 1734900006 # Simulated unhalted cycles
   cCycles: 0 # Cycles due to contention stalls
   instrs: 2501683816 # Simulated instructions
   uops: 3093200795 # Retired micro-ops
   bbls: 269219142 # Basic blocks
   approxInstrs: 3 # Instrs with approx uop decoding
   mispredBranches: 818038 # Mispredicted branches
   fetchStalls: 14007556 # Fetch stalls
   decodeStalls: 951261947 # Decode stalls
   issueStalls: 72496653 # Issue stalls
 l1i: # Cache stats
  l1i-0: # Filter cache stats
   fhGETS: 307062409 # Filtered GETS hits
   fhGETX: 0 # Filtered GETX hits
   hGETS: 65439591 # GETS hits
   hGETX: 0 # GETX hits
   mGETS: 1273 # GETS misses
   mGETXIM: 0 # GETX I->M misses
   mGETXSM: 0 # GETX S->M misses (upgrade misses)
   PUTS: 0 # Clean evictions (from lower level)
   PUTX: 0 # Dirty evictions (from lower level)
   INV: 1219 # Invalidates (from upper level)
   INVX: 0 # Downgrades (from upper level)
   FWD: 0 # Forwards (from upper level)
   latGETnl: 114007 # GET request latency on next level
   latGETnet: 0 # GET request latency on network to next level
  l1i-1: # Filter cache stats
   fhGETS: 300038915 # Filtered GETS hits
   fhGETX: 0 # Filtered GETX hits
   hGETS: 72960780 # GETS hits
   hGETX: 0 # GETX hits
   mGETS: 1151 # GETS misses
   mGETXIM: 0 # GETX I->M misses
   mGETXSM: 0 # GETX S->M misses (upgrade misses)
   PUTS: 0 # Clean evictions (from lower level)
   PUTX: 0 # Dirty evictions (from lower level)
   INV: 1103 # Invalidates (from upper level)
   INVX: 0 # Downgrades (from upper level)
   FWD: 0 # Forwards (from upper level)
   latGETnl: 114776 # GET request latency on next level
   latGETnet: 0 # GET request latency on network to next level
 l1d: # Cache stats
  l1d-0: # Filter cache stats
   fhGETS: 517322946 # Filtered GETS hits
   fhGETX: 222638265 # Filtered GETX hits
   hGETS: 48522948 # GETS hits
   hGETX: 1163150 # GETX hits
   mGETS: 1534286 # GETS misses
   mGETXIM: 86 # GETX I->M misses
   mGETXSM: 1 # GETX S->M misses (upgrade misses)
   PUTS: 0 # Clean evictions (from lower level)
   PUTX: 0 # Dirty evictions (from lower level)
   INV: 4633 # Invalidates (from upper level)
   INVX: 3399 # Downgrades (from upper level)
   FWD: 0 # Forwards (from upper level)
   latGETnl: 209669462 # GET request latency on next level
   latGETnet: 0 # GET request latency on network to next level
  l1d-1: # Filter cache stats
   fhGETS: 511118571 # Filtered GETS hits
   fhGETX: 215926681 # Filtered GETX hits
   hGETS: 55481095 # GETS hits
   hGETX: 8174022 # GETX hits
   mGETS: 1539205 # GETS misses
   mGETXIM: 63 # GETX I->M misses
   mGETXSM: 6 # GETX S->M misses (upgrade misses)
   PUTS: 0 # Clean evictions (from lower level)
   PUTX: 0 # Dirty evictions (from lower level)
   INV: 4852 # Invalidates (from upper level)
   INVX: 1739 # Downgrades (from upper level)
   FWD: 0 # Forwards (from upper level)
   latGETnl: 209800622 # GET request latency on next level
   latGETnet: 0 # GET request latency on network to next level
 l2: # Cache stats
  l2-0: # Cache stats
   hGETS: 136983 # GETS hits
   hGETX: 0 # GETX hits
   mGETS: 1398576 # GETS misses
   mGETXIM: 86 # GETX I->M misses
   mGETXSM: 1 # GETX S->M misses (upgrade misses)
   PUTS: 1529196 # Clean evictions (from lower level)
   PUTX: 36 # Dirty evictions (from lower level)
   INV: 1332075 # Invalidates (from upper level)
   INVX: 3412 # Downgrades (from upper level)
   FWD: 0 # Forwards (from upper level)
   latGETnl: 191355717 # GET request latency on next level
   latGETnet: 0 # GET request latency on network to next level
  l2-1: # Cache stats
   hGETS: 140115 # GETS hits
   hGETX: 0 # GETX hits
   mGETS: 1400241 # GETS misses
   mGETXIM: 63 # GETX I->M misses
   mGETXSM: 6 # GETX S->M misses (upgrade misses)
   PUTS: 1533883 # Clean evictions (from lower level)
   PUTX: 21 # Dirty evictions (from lower level)
   INV: 1335540 # Invalidates (from upper level)
   INVX: 1783 # Downgrades (from upper level)
   FWD: 0 # Forwards (from upper level)
   latGETnl: 191430298 # GET request latency on next level
   latGETnet: 0 # GET request latency on network to next level
 l3: # Cache stats
  l3-0: # Cache stats
   hGETS: 6296 # GETS hits
   hGETX: 10 # GETX hits
   mGETS: 2792521 # GETS misses
   mGETXIM: 146 # GETX I->M misses
   mGETXSM: 0 # GETX S->M misses (upgrade misses)
   PUTS: 0 # Clean evictions (from lower level)
   PUTX: 0 # Dirty evictions (from lower level)
   INV: 0 # Invalidates (from upper level)
   INVX: 0 # Downgrades (from upper level)
   FWD: 0 # Forwards (from upper level)
   latGETnl: 335120426 # GET request latency on next level
   latGETnet: 0 # GET request latency on network to next level
 mem: # Memory controller stats
  mem-0: # Memory controller stats
   rd: 2792667 # Read requests
   wr: 271 # Write requests
   rdlat: 335120426 # Total latency experienced by read requests
   wrlat: 32520 # Total latency experienced by write requests
   load: 34736 # Sum of load factors (0-100) per update
   ups: 17348 # Number of latency updates
   clampedLoads: 0 # Number of updates where the load was clamped to 95%
 sched: # Scheduler stats
  thCr: 2 # Threads created
  thFn: 0 # Threads finished
  schedEvs: 2 # Schedule events
  waitEvs: 0 # Wait events
  handoffEvs: 0 # Handoff events
  sleepEvs: 0 # Sleep events
  idlePhases: 0 # Phases with no thread active
  idlePeriods: 0 # Periods with no thread active
  occHist: # Occupancy histogram
   0: 0
   1: 0
   2: 17349
  rqSzHist: # Run queue size histogram
   0: 17349
   1: 0
   2: 0
   3: 0
   4: 0
   5: 0
   6: 0
   7: 0
   8: 0
   9: 0
   10: 0
   11: 0
   12: 0
   13: 0
   14: 0
   15: 0
   16: 0
 heartbeats: # Per-process heartbeats
  0: 0
  1: 0
  2: 0
  3: 0
  4: 0
  5: 0
  6: 0
  7: 0
  8: 0
  9: 0
  10: 0
  11: 0
  12: 0
  13: 0
  14: 0
  15: 0
  16: 0
  17: 0
  18: 0
  19: 0
  20: 0
  21: 0
  22: 0
  23: 0
  24: 0
  25: 0
  26: 0
  27: 0
  28: 0
  29: 0
  30: 0
  31: 0
  32: 0
  33: 0
  34: 0
  35: 0
  36: 0
  37: 0
  38: 0
  39: 0
  40: 0
  41: 0
  42: 0
  43: 0
  44: 0
  45: 0
  46: 0
  47: 0
  48: 0
  49: 0
  50: 0
  51: 0
  52: 0
  53: 0
  54: 0
  55: 0
  56: 0
  57: 0
  58: 0
  59: 0
  60: 0
  61: 0
  62: 0
  63: 0
===
