[H[2J[0;91mHello, rakeshr1. today is, Fri May 24 15:59:08 PDT 2013
[1;33m
      May 2013        
Su Mo Tu We Th Fr Sa  
          1  2  3  4  
 5  6  7  8  9 10 11  
12 13 14 15 16 17 18  
19 20 21 22 23 _2_4 25  
26 27 28 29 30 31     
                      

[1;35mSysinfo: 15:59:08 up 314 days, 15:07,  1 user,  load average: 0.25, 0.27, 0.23

[H] Starting zsim, built Thu May 9 11:57:36 PDT 2013
[H] Creating global segment, 1024 MBs
[H] Global segment shmid = 32505856
[H] Deadlock detection ON
[S 0] Started instance
[S 0] Started RR scheduler, quantum=10000 phases
[S 0] l2's children are all terminal, interleaving them
[S 0] Initialized system
[S 0] HDF5 backend: Opening /vgates/horowitz/users/rakeshr1/spring/ee282-pa2/exercise-1/simulations/streamcluster_wide_1_1_1700_L1_32_4_L2_512_8_L3_8192_16_MEMBW_6400/zsim-ev.h5
[S 0] HDF5 backend: Created table, 1336 bytes/record, 99 records/write
[S 0] HDF5 backend: Opening /vgates/horowitz/users/rakeshr1/spring/ee282-pa2/exercise-1/simulations/streamcluster_wide_1_1_1700_L1_32_4_L2_512_8_L3_8192_16_MEMBW_6400/zsim-cmp.h5
[S 0] HDF5 backend: Created table, 1336 bytes/record, 1 records/write
[S 0] Initialization complete
[H] Attached to global heap
[S 0] Started process, PID 12222
[S 0] procMask: 0x0
[S 0] [0] Adjusting clocks, domain 0, de-ffwd 0
[S 0] Offsets: 1369436348182109500 27184050209932808 58546440 63268697994531148
[S 0] vDSO info initialized
[S 0] FF control Thread TID 12227
[S 0] Started contention simulation thread 0
[S 0] Started scheduler watchdog thread
[S 0] FF thread 0 starting
PARSEC Benchmark Suite
[S 0] ROI_BEGIN, exiting fast-forward
[S 0] [0] Adjusting clocks, domain 0, de-ffwd 1
[S 0] Offsets: 1369436349879996143 27184051907819487 1751652515 63268701946205819
[S 0] Thread 0 starting
[S 0] Max total (aggregate) instructions reached (5000045711)
[S 0] Termination condition met, exiting
[S 0] Finished scheduler watchdog thread
[H] Child 12222 done
[H] All children done, exiting
Cores                  : 1
Frequency (MHz)        : 1700
Voltage (V)            : 1.07823
Area (mm^2)            : 70

Time (s)               : 4.26211764705882352941
Total energy (J)       : 62.24116534948237253677
Energy-Delay Product   : 265.27916920953498732484

Core dynamic energy (J): 7.08079848118777196034
Core static energy (J) : 6.03693290945267999999
L1 dynamic energy (J)  : .02682567706084740000
L1 static energy (J)   : .16205040127058823529
L2 dynamic energy (J)  : .38737088816821200000
L2 static energy (J)   : 2.37622009270588235294
L3 dynamic energy (J)  : .07773123845992000000
L3 static energy (J)   : 37.76858504470588235292
Mem dynamic energy (J) : 8.10885960000000000000
Mem static energy (J)  : .21579101647058823529
