[H[2J[0;91mHello, rakeshr1. today is, Fri May 24 20:29:38 PDT 2013
[1;33m
      May 2013        
Su Mo Tu We Th Fr Sa  
          1  2  3  4  
 5  6  7  8  9 10 11  
12 13 14 15 16 17 18  
19 20 21 22 23 _2_4 25  
26 27 28 29 30 31     
                      

[1;35mSysinfo: 20:29:38 up 314 days, 19:37,  0 users,  load average: 1.86, 1.15, 1.72

[H] Starting zsim, built Thu May 9 11:57:36 PDT 2013
[H] Creating global segment, 1024 MBs
[H] Global segment shmid = 36077568
[H] Deadlock detection ON
[S 0] Started instance
[S 0] Limiting concurrent threads to 1
[S 0] Started RR scheduler, quantum=10000 phases
[S 0] l2's children are all terminal, interleaving them
[S 0] Initialized system
[S 0] HDF5 backend: Opening /vgates/horowitz/users/rakeshr1/spring/ee282-pa2/exercise-2/part-b/art_wide_8_8_1700_L1_32_4_L2_512_8_L3_8192_16_MEMBW_1000/zsim-ev.h5
[S 0] HDF5 backend: Created table, 4192 bytes/record, 32 records/write
[S 0] HDF5 backend: Opening /vgates/horowitz/users/rakeshr1/spring/ee282-pa2/exercise-2/part-b/art_wide_8_8_1700_L1_32_4_L2_512_8_L3_8192_16_MEMBW_1000/zsim-cmp.h5
[S 0] HDF5 backend: Created table, 1392 bytes/record, 1 records/write
[S 0] Initialization complete
[H] Attached to global heap
[S 0] Started process, PID 11156
[S 0] procMask: 0x0
[S 0] [0] Adjusting clocks, domain 0, de-ffwd 0
[S 0] Offsets: 1369452579644808101 27200279611031985 81804448 63307097069983676
[S 0] vDSO info initialized
[S 0] FF control Thread TID 11242
[S 0] Started contention simulation thread 0
[S 0] Started scheduler watchdog thread
[S 0] FF thread 0 starting
[S 0] FF thread 4 starting
[S 0] FF thread 5 starting
[S 0] FF thread 6 starting
[S 0] FF thread 7 starting
[S 0] FF thread 8 starting
[S 0] FF thread 9 starting
[S 0] FF thread 10 starting
[H] Some fast-forwarding is going on, not doing deadlock detection (a: 1, ff: 1, sff: 1)
[H] Some fast-forwarding is going on, not doing deadlock detection (a: 1, ff: 1, sff: 1)
[S 0] ROI_BEGIN, exiting fast-forward
[S 0] [0] Adjusting clocks, domain 0, de-ffwd 1
[S 0] Offsets: 1369452599808671548 27200299774895456 19954057307 63307143999926897
[S 0] Thread 0 starting
[S 0] Thread 8 starting
[S 0] Thread 9 starting
[S 0] Thread 6 starting
[S 0] Thread 10 starting
[S 0] Thread 5 starting
[S 0] Thread 4 starting
[S 0] Thread 7 starting
[S 0] Max total (aggregate) instructions reached (5000127453)
[S 0] Termination condition met, exiting
[S 0] Termination condition met, exiting
[S 0] Termination condition met, exiting
[S 0] Termination condition met, exiting
[S 0] Termination condition met, exiting
[S 0] Termination condition met, exiting
[S 0] Termination condition met, exiting
[S 0] Termination condition met, exiting
[H] Child 11156 done
[H] All children done, exiting
Cores                  : 8
Frequency (MHz)        : 1700
Voltage (V)            : 1.07823
Area (mm^2)            : 347

Time (s)               : 2.55576470588235294117
Total energy (J)       : 89.66935018867651933116
Energy-Delay Product   : 229.17376041162455364061

Core dynamic energy (J): 7.08091423985537291957
Core static energy (J) : 28.96021431488351999992
L1 dynamic energy (J)  : .03496465274969700000
L1 static energy (J)   : .77738388367058823529
L2 dynamic energy (J)  : .20091951754875000000
L2 static energy (J)   : 11.39913995670588235291
L3 dynamic energy (J)  : .50046734561565000000
L3 static energy (J)   : 22.64780671058823529406
Mem dynamic energy (J) : 17.93814120000000000000
Mem static energy (J)  : .12939836705882352941
