# zsim stats
===
root: # Stats
 contention: # Contention simulation stats
  domain-0: # Domain stats
   time: 2082612750 # Weave simulation time
 time: # Simulator time breakdown
  init: 20317802667
  bound: 2151776968105
  weave: 3834857938
  ff: 0
 trigger: 20000 # Reason for this stats dump
 phase: 43448 # Simulated phases
 core: # Core stats
  core-0: # Core stats
   cycles: 4344514946 # Simulated unhalted cycles
   cCycles: 0 # Cycles due to contention stalls
   instrs: 624892554 # Simulated instructions
   uops: 639615503 # Retired micro-ops
   bbls: 100443355 # Basic blocks
   approxInstrs: 7600125 # Instrs with approx uop decoding
   mispredBranches: 5403 # Mispredicted branches
   fetchStalls: 2843063 # Fetch stalls
   decodeStalls: 162200124 # Decode stalls
   issueStalls: 16262658 # Issue stalls
  core-1: # Core stats
   cycles: 4344646617 # Simulated unhalted cycles
   cCycles: 0 # Cycles due to contention stalls
   instrs: 624903723 # Simulated instructions
   uops: 639946932 # Retired micro-ops
   bbls: 100366942 # Basic blocks
   approxInstrs: 7580110 # Instrs with approx uop decoding
   mispredBranches: 5557 # Mispredicted branches
   fetchStalls: 573544 # Fetch stalls
   decodeStalls: 162378011 # Decode stalls
   issueStalls: 16441728 # Issue stalls
  core-2: # Core stats
   cycles: 4344333063 # Simulated unhalted cycles
   cCycles: 0 # Cycles due to contention stalls
   instrs: 625621985 # Simulated instructions
   uops: 640694675 # Retired micro-ops
   bbls: 100461192 # Basic blocks
   approxInstrs: 7600110 # Instrs with approx uop decoding
   mispredBranches: 5473 # Mispredicted branches
   fetchStalls: 1602683 # Fetch stalls
   decodeStalls: 162567383 # Decode stalls
   issueStalls: 16289141 # Issue stalls
  core-3: # Core stats
   cycles: 4344445708 # Simulated unhalted cycles
   cCycles: 0 # Cycles due to contention stalls
   instrs: 625017547 # Simulated instructions
   uops: 640070697 # Retired micro-ops
   bbls: 100382810 # Basic blocks
   approxInstrs: 7580070 # Instrs with approx uop decoding
   mispredBranches: 5456 # Mispredicted branches
   fetchStalls: 770692 # Fetch stalls
   decodeStalls: 162411019 # Decode stalls
   issueStalls: 16898101 # Issue stalls
  core-4: # Core stats
   cycles: 4344581747 # Simulated unhalted cycles
   cCycles: 0 # Cycles due to contention stalls
   instrs: 624155938 # Simulated instructions
   uops: 638527422 # Retired micro-ops
   bbls: 100423577 # Basic blocks
   approxInstrs: 7600103 # Instrs with approx uop decoding
   mispredBranches: 5351 # Mispredicted branches
   fetchStalls: 1765782 # Fetch stalls
   decodeStalls: 161830343 # Decode stalls
   issueStalls: 16503834 # Issue stalls
  core-5: # Core stats
   cycles: 4344544984 # Simulated unhalted cycles
   cCycles: 0 # Cycles due to contention stalls
   instrs: 624891585 # Simulated instructions
   uops: 639613279 # Retired micro-ops
   bbls: 100442825 # Basic blocks
   approxInstrs: 7600103 # Instrs with approx uop decoding
   mispredBranches: 5353 # Mispredicted branches
   fetchStalls: 809506 # Fetch stalls
   decodeStalls: 162199379 # Decode stalls
   issueStalls: 16449259 # Issue stalls
  core-6: # Core stats
   cycles: 4344629405 # Simulated unhalted cycles
   cCycles: 0 # Cycles due to contention stalls
   instrs: 625771616 # Simulated instructions
   uops: 641175057 # Retired micro-ops
   bbls: 100406532 # Basic blocks
   approxInstrs: 7580099 # Instrs with approx uop decoding
   mispredBranches: 5609 # Mispredicted branches
   fetchStalls: 552197 # Fetch stalls
   decodeStalls: 162784298 # Decode stalls
   issueStalls: 16690334 # Issue stalls
  core-7: # Core stats
   cycles: 4344529410 # Simulated unhalted cycles
   cCycles: 0 # Cycles due to contention stalls
   instrs: 624872505 # Simulated instructions
   uops: 639594574 # Retired micro-ops
   bbls: 100439044 # Basic blocks
   approxInstrs: 7600072 # Instrs with approx uop decoding
   mispredBranches: 5404 # Mispredicted branches
   fetchStalls: 3082386 # Fetch stalls
   decodeStalls: 162195261 # Decode stalls
   issueStalls: 16480579 # Issue stalls
 l1i: # Cache stats
  l1i-0: # Filter cache stats
   fhGETS: 108713334 # Filtered GETS hits
   fhGETX: 0 # Filtered GETX hits
   hGETS: 1053 # GETS hits
   hGETX: 0 # GETX hits
   mGETS: 17203 # GETS misses
   mGETXIM: 0 # GETX I->M misses
   mGETXSM: 0 # GETX S->M misses (upgrade misses)
   PUTS: 0 # Clean evictions (from lower level)
   PUTX: 0 # Dirty evictions (from lower level)
   INV: 17199 # Invalidates (from upper level)
   INVX: 0 # Downgrades (from upper level)
   FWD: 0 # Forwards (from upper level)
   latGETnl: 3528894 # GET request latency on next level
   latGETnet: 0 # GET request latency on network to next level
  l1i-1: # Filter cache stats
   fhGETS: 108632817 # Filtered GETS hits
   fhGETX: 0 # Filtered GETX hits
   hGETS: 906 # GETS hits
   hGETX: 0 # GETX hits
   mGETS: 17200 # GETS misses
   mGETXIM: 0 # GETX I->M misses
   mGETXSM: 0 # GETX S->M misses (upgrade misses)
   PUTS: 0 # Clean evictions (from lower level)
   PUTX: 0 # Dirty evictions (from lower level)
   INV: 17198 # Invalidates (from upper level)
   INVX: 0 # Downgrades (from upper level)
   FWD: 0 # Forwards (from upper level)
   latGETnl: 649561 # GET request latency on next level
   latGETnet: 0 # GET request latency on network to next level
  l1i-2: # Filter cache stats
   fhGETS: 108741459 # Filtered GETS hits
   fhGETX: 0 # Filtered GETX hits
   hGETS: 921 # GETS hits
   hGETX: 0 # GETX hits
   mGETS: 17194 # GETS misses
   mGETXIM: 0 # GETX I->M misses
   mGETXSM: 0 # GETX S->M misses (upgrade misses)
   PUTS: 0 # Clean evictions (from lower level)
   PUTX: 0 # Dirty evictions (from lower level)
   INV: 17190 # Invalidates (from upper level)
   INVX: 0 # Downgrades (from upper level)
   FWD: 0 # Forwards (from upper level)
   latGETnl: 1950269 # GET request latency on next level
   latGETnet: 0 # GET request latency on network to next level
  l1i-3: # Filter cache stats
   fhGETS: 108648370 # Filtered GETS hits
   fhGETX: 0 # Filtered GETX hits
   hGETS: 614 # GETS hits
   hGETX: 0 # GETX hits
   mGETS: 17315 # GETS misses
   mGETXIM: 0 # GETX I->M misses
   mGETXSM: 0 # GETX S->M misses (upgrade misses)
   PUTS: 0 # Clean evictions (from lower level)
   PUTX: 0 # Dirty evictions (from lower level)
   INV: 17305 # Invalidates (from upper level)
   INVX: 0 # Downgrades (from upper level)
   FWD: 0 # Forwards (from upper level)
   latGETnl: 887873 # GET request latency on next level
   latGETnet: 0 # GET request latency on network to next level
  l1i-4: # Filter cache stats
   fhGETS: 108683666 # Filtered GETS hits
   fhGETX: 0 # Filtered GETX hits
   hGETS: 894 # GETS hits
   hGETX: 0 # GETX hits
   mGETS: 17215 # GETS misses
   mGETXIM: 0 # GETX I->M misses
   mGETXSM: 0 # GETX S->M misses (upgrade misses)
   PUTS: 0 # Clean evictions (from lower level)
   PUTX: 0 # Dirty evictions (from lower level)
   INV: 17211 # Invalidates (from upper level)
   INVX: 0 # Downgrades (from upper level)
   FWD: 0 # Forwards (from upper level)
   latGETnl: 2177925 # GET request latency on next level
   latGETnet: 0 # GET request latency on network to next level
  l1i-5: # Filter cache stats
   fhGETS: 108712555 # Filtered GETS hits
   fhGETX: 0 # Filtered GETX hits
   hGETS: 835 # GETS hits
   hGETX: 0 # GETX hits
   mGETS: 17547 # GETS misses
   mGETXIM: 0 # GETX I->M misses
   mGETXSM: 0 # GETX S->M misses (upgrade misses)
   PUTS: 0 # Clean evictions (from lower level)
   PUTX: 0 # Dirty evictions (from lower level)
   INV: 17543 # Invalidates (from upper level)
   INVX: 0 # Downgrades (from upper level)
   FWD: 0 # Forwards (from upper level)
   latGETnl: 966673 # GET request latency on next level
   latGETnet: 0 # GET request latency on network to next level
  l1i-6: # Filter cache stats
   fhGETS: 108682538 # Filtered GETS hits
   fhGETX: 0 # Filtered GETX hits
   hGETS: 828 # GETS hits
   hGETX: 0 # GETX hits
   mGETS: 17303 # GETS misses
   mGETXIM: 0 # GETX I->M misses
   mGETXSM: 0 # GETX S->M misses (upgrade misses)
   PUTS: 0 # Clean evictions (from lower level)
   PUTX: 0 # Dirty evictions (from lower level)
   INV: 17293 # Invalidates (from upper level)
   INVX: 0 # Downgrades (from upper level)
   FWD: 0 # Forwards (from upper level)
   latGETnl: 647171 # GET request latency on next level
   latGETnet: 0 # GET request latency on network to next level
  l1i-7: # Filter cache stats
   fhGETS: 108709215 # Filtered GETS hits
   fhGETX: 0 # Filtered GETX hits
   hGETS: 591 # GETS hits
   hGETX: 0 # GETX hits
   mGETS: 17251 # GETS misses
   mGETXIM: 0 # GETX I->M misses
   mGETXSM: 0 # GETX S->M misses (upgrade misses)
   PUTS: 0 # Clean evictions (from lower level)
   PUTX: 0 # Dirty evictions (from lower level)
   INV: 17247 # Invalidates (from upper level)
   INVX: 0 # Downgrades (from upper level)
   FWD: 0 # Forwards (from upper level)
   latGETnl: 4029706 # GET request latency on next level
   latGETnet: 0 # GET request latency on network to next level
 l1d: # Cache stats
  l1d-0: # Filter cache stats
   fhGETS: 109507229 # Filtered GETS hits
   fhGETX: 28656419 # Filtered GETX hits
   hGETS: 10165567 # GETS hits
   hGETX: 12104081 # GETX hits
   mGETS: 24900812 # GETS misses
   mGETXIM: 4607515 # GETX I->M misses
   mGETXSM: 342 # GETX S->M misses (upgrade misses)
   PUTS: 0 # Clean evictions (from lower level)
   PUTX: 0 # Dirty evictions (from lower level)
   INV: 6954 # Invalidates (from upper level)
   INVX: 803207 # Downgrades (from upper level)
   FWD: 0 # Forwards (from upper level)
   latGETnl: 11278399525 # GET request latency on next level
   latGETnet: 0 # GET request latency on network to next level
  l1d-1: # Filter cache stats
   fhGETS: 106355648 # Filtered GETS hits
   fhGETX: 26670853 # Filtered GETX hits
   hGETS: 13684505 # GETS hits
   hGETX: 14179214 # GETX hits
   mGETS: 24870430 # GETS misses
   mGETXIM: 4622136 # GETX I->M misses
   mGETXSM: 15547 # GETX S->M misses (upgrade misses)
   PUTS: 0 # Clean evictions (from lower level)
   PUTX: 0 # Dirty evictions (from lower level)
   INV: 6420 # Invalidates (from upper level)
   INVX: 19591 # Downgrades (from upper level)
   FWD: 0 # Forwards (from upper level)
   latGETnl: 11166322968 # GET request latency on next level
   latGETnet: 0 # GET request latency on network to next level
  l1d-2: # Filter cache stats
   fhGETS: 110077822 # Filtered GETS hits
   fhGETX: 28852823 # Filtered GETX hits
   hGETS: 10044521 # GETS hits
   hGETX: 12062358 # GETX hits
   mGETS: 24919260 # GETS misses
   mGETXIM: 4622154 # GETX I->M misses
   mGETXSM: 279 # GETX S->M misses (upgrade misses)
   PUTS: 0 # Clean evictions (from lower level)
   PUTX: 0 # Dirty evictions (from lower level)
   INV: 16926 # Invalidates (from upper level)
   INVX: 708165 # Downgrades (from upper level)
   FWD: 0 # Forwards (from upper level)
   latGETnl: 11631766638 # GET request latency on next level
   latGETnet: 0 # GET request latency on network to next level
  l1d-3: # Filter cache stats
   fhGETS: 110262024 # Filtered GETS hits
   fhGETX: 28880508 # Filtered GETX hits
   hGETS: 9800687 # GETS hits
   hGETX: 11993685 # GETX hits
   mGETS: 24891804 # GETS misses
   mGETXIM: 4621738 # GETX I->M misses
   mGETXSM: 242 # GETX S->M misses (upgrade misses)
   PUTS: 0 # Clean evictions (from lower level)
   PUTX: 0 # Dirty evictions (from lower level)
   INV: 16787 # Invalidates (from upper level)
   INVX: 283536 # Downgrades (from upper level)
   FWD: 0 # Forwards (from upper level)
   latGETnl: 11785222207 # GET request latency on next level
   latGETnet: 0 # GET request latency on network to next level
  l1d-4: # Filter cache stats
   fhGETS: 109221803 # Filtered GETS hits
   fhGETX: 28557922 # Filtered GETX hits
   hGETS: 9980576 # GETS hits
   hGETX: 12048064 # GETX hits
   mGETS: 24900827 # GETS misses
   mGETXIM: 4592154 # GETX I->M misses
   mGETXSM: 278 # GETX S->M misses (upgrade misses)
   PUTS: 0 # Clean evictions (from lower level)
   PUTX: 0 # Dirty evictions (from lower level)
   INV: 17329 # Invalidates (from upper level)
   INVX: 458615 # Downgrades (from upper level)
   FWD: 0 # Forwards (from upper level)
   latGETnl: 10985692650 # GET request latency on next level
   latGETnet: 0 # GET request latency on network to next level
  l1d-5: # Filter cache stats
   fhGETS: 117015494 # Filtered GETS hits
   fhGETX: 28714101 # Filtered GETX hits
   hGETS: 2656857 # GETS hits
   hGETX: 12046513 # GETX hits
   mGETS: 24900265 # GETS misses
   mGETXIM: 4607161 # GETX I->M misses
   mGETXSM: 296 # GETX S->M misses (upgrade misses)
   PUTS: 0 # Clean evictions (from lower level)
   PUTX: 0 # Dirty evictions (from lower level)
   INV: 6890 # Invalidates (from upper level)
   INVX: 497446 # Downgrades (from upper level)
   FWD: 0 # Forwards (from upper level)
   latGETnl: 11592718665 # GET request latency on next level
   latGETnet: 0 # GET request latency on network to next level
  l1d-6: # Filter cache stats
   fhGETS: 110477120 # Filtered GETS hits
   fhGETX: 28981438 # Filtered GETX hits
   hGETS: 10050033 # GETS hits
   hGETX: 12047647 # GETX hits
   mGETS: 24900721 # GETS misses
   mGETXIM: 4637238 # GETX I->M misses
   mGETXSM: 195 # GETX S->M misses (upgrade misses)
   PUTS: 0 # Clean evictions (from lower level)
   PUTX: 0 # Dirty evictions (from lower level)
   INV: 18452 # Invalidates (from upper level)
   INVX: 100695 # Downgrades (from upper level)
   FWD: 0 # Forwards (from upper level)
   latGETnl: 11280595471 # GET request latency on next level
   latGETnet: 0 # GET request latency on network to next level
  l1d-7: # Filter cache stats
   fhGETS: 109626980 # Filtered GETS hits
   fhGETX: 28706248 # Filtered GETX hits
   hGETS: 10042101 # GETS hits
   hGETX: 12053444 # GETX hits
   mGETS: 24900447 # GETS misses
   mGETXIM: 4607162 # GETX I->M misses
   mGETXSM: 242 # GETX S->M misses (upgrade misses)
   PUTS: 0 # Clean evictions (from lower level)
   PUTX: 0 # Dirty evictions (from lower level)
   INV: 6919 # Invalidates (from upper level)
   INVX: 805961 # Downgrades (from upper level)
   FWD: 0 # Forwards (from upper level)
   latGETnl: 10013758089 # GET request latency on next level
   latGETnet: 0 # GET request latency on network to next level
 l2: # Cache stats
  l2-0: # Cache stats
   hGETS: 5 # GETS hits
   hGETX: 0 # GETX hits
   mGETS: 24918010 # GETS misses
   mGETXIM: 4607515 # GETX I->M misses
   mGETXSM: 342 # GETX S->M misses (upgrade misses)
   PUTS: 13497984 # Clean evictions (from lower level)
   PUTX: 16002877 # Dirty evictions (from lower level)
   INV: 3675 # Invalidates (from upper level)
   INVX: 855470 # Downgrades (from upper level)
   FWD: 0 # Forwards (from upper level)
   latGETnl: 11045721443 # GET request latency on next level
   latGETnet: 0 # GET request latency on network to next level
  l2-1: # Cache stats
   hGETS: 43 # GETS hits
   hGETX: 141 # GETX hits
   mGETS: 24887587 # GETS misses
   mGETXIM: 4621995 # GETX I->M misses
   mGETXSM: 15547 # GETX S->M misses (upgrade misses)
   PUTS: 13492698 # Clean evictions (from lower level)
   PUTX: 15992936 # Dirty evictions (from lower level)
   INV: 461365 # Invalidates (from upper level)
   INVX: 44523 # Downgrades (from upper level)
   FWD: 0 # Forwards (from upper level)
   latGETnl: 10930770025 # GET request latency on next level
   latGETnet: 0 # GET request latency on network to next level
  l2-2: # Cache stats
   hGETS: 6 # GETS hits
   hGETX: 1 # GETX hits
   mGETS: 24936448 # GETS misses
   mGETXIM: 4622153 # GETX I->M misses
   mGETXSM: 279 # GETX S->M misses (upgrade misses)
   PUTS: 13506386 # Clean evictions (from lower level)
   PUTX: 16017590 # Dirty evictions (from lower level)
   INV: 17376 # Invalidates (from upper level)
   INVX: 739210 # Downgrades (from upper level)
   FWD: 0 # Forwards (from upper level)
   latGETnl: 11397245811 # GET request latency on next level
   latGETnet: 0 # GET request latency on network to next level
  l2-3: # Cache stats
   hGETS: 27 # GETS hits
   hGETX: 4 # GETX hits
   mGETS: 24909092 # GETS misses
   mGETXIM: 4621734 # GETX I->M misses
   mGETXSM: 242 # GETX S->M misses (upgrade misses)
   PUTS: 13500266 # Clean evictions (from lower level)
   PUTX: 15995977 # Dirty evictions (from lower level)
   INV: 87328 # Invalidates (from upper level)
   INVX: 419654 # Downgrades (from upper level)
   FWD: 0 # Forwards (from upper level)
   latGETnl: 11549861288 # GET request latency on next level
   latGETnet: 0 # GET request latency on network to next level
  l2-4: # Cache stats
   hGETS: 17 # GETS hits
   hGETX: 2 # GETX hits
   mGETS: 24918025 # GETS misses
   mGETXIM: 4592152 # GETX I->M misses
   mGETXSM: 278 # GETX S->M misses (upgrade misses)
   PUTS: 13487278 # Clean evictions (from lower level)
   PUTX: 15987862 # Dirty evictions (from lower level)
   INV: 82758 # Invalidates (from upper level)
   INVX: 494511 # Downgrades (from upper level)
   FWD: 0 # Forwards (from upper level)
   latGETnl: 10751786783 # GET request latency on next level
   latGETnet: 0 # GET request latency on network to next level
  l2-5: # Cache stats
   hGETS: 0 # GETS hits
   hGETX: 0 # GETX hits
   mGETS: 24917812 # GETS misses
   mGETXIM: 4607161 # GETX I->M misses
   mGETXSM: 296 # GETX S->M misses (upgrade misses)
   PUTS: 13497234 # Clean evictions (from lower level)
   PUTX: 16002790 # Dirty evictions (from lower level)
   INV: 14114 # Invalidates (from upper level)
   INVX: 530518 # Downgrades (from upper level)
   FWD: 0 # Forwards (from upper level)
   latGETnl: 11357483186 # GET request latency on next level
   latGETnet: 0 # GET request latency on network to next level
  l2-6: # Cache stats
   hGETS: 11 # GETS hits
   hGETX: 28 # GETX hits
   mGETS: 24918013 # GETS misses
   mGETXIM: 4637210 # GETX I->M misses
   mGETXSM: 195 # GETX S->M misses (upgrade misses)
   PUTS: 13507937 # Clean evictions (from lower level)
   PUTX: 16011058 # Dirty evictions (from lower level)
   INV: 126441 # Invalidates (from upper level)
   INVX: 184718 # Downgrades (from upper level)
   FWD: 0 # Forwards (from upper level)
   latGETnl: 11044798986 # GET request latency on next level
   latGETnet: 0 # GET request latency on network to next level
  l2-7: # Cache stats
   hGETS: 4 # GETS hits
   hGETX: 2 # GETX hits
   mGETS: 24917694 # GETS misses
   mGETXIM: 4607160 # GETX I->M misses
   mGETXSM: 242 # GETX S->M misses (upgrade misses)
   PUTS: 13497646 # Clean evictions (from lower level)
   PUTX: 16002532 # Dirty evictions (from lower level)
   INV: 10813 # Invalidates (from upper level)
   INVX: 884479 # Downgrades (from upper level)
   FWD: 0 # Forwards (from upper level)
   latGETnl: 9781586979 # GET request latency on next level
   latGETnet: 0 # GET request latency on network to next level
 l3: # Cache stats
  l3-0: # Cache stats
   hGETS: 132477115 # GETS hits
   hGETX: 35796364 # GETX hits
   mGETS: 66845566 # GETS misses
   mGETXIM: 1138137 # GETX I->M misses
   mGETXSM: 0 # GETX S->M misses (upgrade misses)
   PUTS: 107447108 # Clean evictions (from lower level)
   PUTX: 127923725 # Dirty evictions (from lower level)
   INV: 0 # Invalidates (from upper level)
   INVX: 0 # Downgrades (from upper level)
   FWD: 0 # Forwards (from upper level)
   latGETnl: 83794735759 # GET request latency on next level
   latGETnet: 0 # GET request latency on network to next level
 mem: # Memory controller stats
  mem-0: # Memory controller stats
   rd: 67983703 # Read requests
   wr: 21707003 # Write requests
   rdlat: 83794735759 # Total latency experienced by read requests
   wrlat: 27103219477 # Total latency experienced by write requests
   load: 4097957 # Sum of load factors (0-100) per update
   ups: 43342 # Number of latency updates
   clampedLoads: 42205 # Number of updates where the load was clamped to 95%
 sched: # Scheduler stats
  thCr: 8 # Threads created
  thFn: 0 # Threads finished
  schedEvs: 8 # Schedule events
  waitEvs: 0 # Wait events
  handoffEvs: 0 # Handoff events
  sleepEvs: 0 # Sleep events
  idlePhases: 0 # Phases with no thread active
  idlePeriods: 0 # Periods with no thread active
  occHist: # Occupancy histogram
   0: 0
   1: 0
   2: 0
   3: 0
   4: 0
   5: 0
   6: 0
   7: 0
   8: 43448
  rqSzHist: # Run queue size histogram
   0: 43448
   1: 0
   2: 0
   3: 0
   4: 0
   5: 0
   6: 0
   7: 0
   8: 0
   9: 0
   10: 0
   11: 0
   12: 0
   13: 0
   14: 0
   15: 0
   16: 0
 heartbeats: # Per-process heartbeats
  0: 0
  1: 0
  2: 0
  3: 0
  4: 0
  5: 0
  6: 0
  7: 0
  8: 0
  9: 0
  10: 0
  11: 0
  12: 0
  13: 0
  14: 0
  15: 0
  16: 0
  17: 0
  18: 0
  19: 0
  20: 0
  21: 0
  22: 0
  23: 0
  24: 0
  25: 0
  26: 0
  27: 0
  28: 0
  29: 0
  30: 0
  31: 0
  32: 0
  33: 0
  34: 0
  35: 0
  36: 0
  37: 0
  38: 0
  39: 0
  40: 0
  41: 0
  42: 0
  43: 0
  44: 0
  45: 0
  46: 0
  47: 0
  48: 0
  49: 0
  50: 0
  51: 0
  52: 0
  53: 0
  54: 0
  55: 0
  56: 0
  57: 0
  58: 0
  59: 0
  60: 0
  61: 0
  62: 0
  63: 0
===
