[H[2J[0;91mHello, rakeshr1. today is, Fri May 24 15:59:02 PDT 2013
[1;33m
      May 2013        
Su Mo Tu We Th Fr Sa  
          1  2  3  4  
 5  6  7  8  9 10 11  
12 13 14 15 16 17 18  
19 20 21 22 23 _2_4 25  
26 27 28 29 30 31     
                      

[1;35mSysinfo: 15:59:02 up 314 days, 15:07,  1 user,  load average: 0.01, 0.12, 0.14

[H] Starting zsim, built Thu May 9 11:57:36 PDT 2013
[H] Creating global segment, 1024 MBs
[H] Global segment shmid = 84049921
[H] Deadlock detection ON
[S 0] Started instance
[S 0] Limiting concurrent threads to 1
[S 0] Started RR scheduler, quantum=10000 phases
[S 0] l2's children are all terminal, interleaving them
[S 0] Initialized system
[S 0] HDF5 backend: Opening /vgates/horowitz/users/rakeshr1/spring/ee282-pa2/exercise-1/simulations/blackscholes_wide_2_2_1700_L1_32_4_L2_512_8_L3_8192_16_MEMBW_6400/zsim-ev.h5
[S 0] HDF5 backend: Created table, 1744 bytes/record, 76 records/write
[S 0] HDF5 backend: Opening /vgates/horowitz/users/rakeshr1/spring/ee282-pa2/exercise-1/simulations/blackscholes_wide_2_2_1700_L1_32_4_L2_512_8_L3_8192_16_MEMBW_6400/zsim-cmp.h5
[S 0] HDF5 backend: Created table, 1344 bytes/record, 1 records/write
[S 0] Initialization complete
[H] Attached to global heap
[S 0] Started process, PID 29063
[S 0] procMask: 0x0
[S 0] [0] Adjusting clocks, domain 0, de-ffwd 0
[S 0] Offsets: 1369436342742803710 27184042502885197 56221235 63268965228026586
[S 0] vDSO info initialized
[S 0] Started contention simulation thread 0
[S 0] FF control Thread TID 29071
[S 0] Started scheduler watchdog thread
[S 0] FF thread 0 starting
PARSEC Benchmark Suite
[H] Some fast-forwarding is going on, not doing deadlock detection (a: 1, ff: 1, sff: 1)
[S 0] ROI_BEGIN, exiting fast-forward
[S 0] [0] Adjusting clocks, domain 0, de-ffwd 1
[S 0] Offsets: 1369436361693880085 27184061453961651 17273137525 63269009335014707
[S 0] Thread 0 starting
[S 0] Thread 4 starting
[S 0] Max total (aggregate) instructions reached (5000273039)
[S 0] Termination condition met, exiting
[S 0] Termination condition met, exiting
[H] Child 29063 done
[H] All children done, exiting
Cores                  : 2
Frequency (MHz)        : 1700
Voltage (V)            : 1.07823
Area (mm^2)            : 109

Time (s)               : 1.01929411764705882352
Total energy (J)       : 21.04394751326210246945
Energy-Delay Product   : 21.44997191234151244630

Core dynamic energy (J): 7.08112041099605155785
Core static energy (J) : 2.88748960624367999996
L1 dynamic energy (J)  : .02449049732365950000
L1 static energy (J)   : .07750936715294117646
L2 dynamic energy (J)  : .18909731646421200000
L2 static energy (J)   : 1.13655575152941176469
L3 dynamic energy (J)  : .00609265061097000000
L3 static energy (J)   : 9.03243405176470588226
Mem dynamic energy (J) : .55755100000000000000
Mem static energy (J)  : .05160686117647058823
