[H[2J[0;91mHello, rakeshr1. today is, Fri May 24 15:59:10 PDT 2013
[1;33m
      May 2013        
Su Mo Tu We Th Fr Sa  
          1  2  3  4  
 5  6  7  8  9 10 11  
12 13 14 15 16 17 18  
19 20 21 22 23 _2_4 25  
26 27 28 29 30 31     
                      

[1;35mSysinfo: 15:59:10 up 314 days, 15:07,  1 user,  load average: 0.25, 0.27, 0.23

[H] Starting zsim, built Thu May 9 11:57:36 PDT 2013
[H] Creating global segment, 1024 MBs
[H] Global segment shmid = 32735240
[H] Deadlock detection ON
[S 0] Started instance
[S 0] Limiting concurrent threads to 1
[S 0] Started RR scheduler, quantum=10000 phases
[S 0] l2's children are all terminal, interleaving them
[S 0] Initialized system
[S 0] HDF5 backend: Opening /vgates/horowitz/users/rakeshr1/spring/ee282-pa2/exercise-1/simulations/swaptions_wide_3_3_1700_L1_32_4_L2_512_8_L3_8192_16_MEMBW_6400/zsim-ev.h5
[S 0] HDF5 backend: Created table, 2152 bytes/record, 61 records/write
[S 0] HDF5 backend: Opening /vgates/horowitz/users/rakeshr1/spring/ee282-pa2/exercise-1/simulations/swaptions_wide_3_3_1700_L1_32_4_L2_512_8_L3_8192_16_MEMBW_6400/zsim-cmp.h5
[S 0] HDF5 backend: Created table, 1352 bytes/record, 1 records/write
[S 0] Initialization complete
[H] Attached to global heap
[S 0] Started process, PID 12433
[S 0] procMask: 0x0
[S 0] [0] Adjusting clocks, domain 0, de-ffwd 0
[S 0] Offsets: 1369436351180504374 27184053208327679 67582512 63268704973009704
[S 0] vDSO info initialized
[S 0] FF thread 0 starting
[S 0] Started contention simulation thread 0
[S 0] Started scheduler watchdog thread
[S 0] FF control Thread TID 12439
PARSEC Benchmark Suite
[S 0] ROI_BEGIN, exiting fast-forward
[S 0] [0] Adjusting clocks, domain 0, de-ffwd 1
[S 0] Offsets: 1369436352944853267 27184054972676609 1792003388 63268709079361366
[S 0] Thread 0 starting
[S 0] Thread 4 starting
[S 0] Thread 5 starting
[S 0] Max total (aggregate) instructions reached (5000459406)
[S 0] Termination condition met, exiting
[S 0] Termination condition met, exiting
[S 0] Termination condition met, exiting
[S 0] Finished scheduler watchdog thread
[H] Child 12433 done
[H] All children done, exiting
Cores                  : 3
Frequency (MHz)        : 1700
Voltage (V)            : 1.07823
Area (mm^2)            : 149

Time (s)               : .61941176470588235294
Total energy (J)       : 16.65136915612331695231
Energy-Delay Product   : 10.31405395376344279455

Core dynamic energy (J): 7.08138433401732321708
Core static energy (J) : 2.63203476053894999997
L1 dynamic energy (J)  : .02976837046422750000
L1 static energy (J)   : .07065214994117647058
L2 dynamic energy (J)  : .27890904222721800000
L2 static energy (J)   : 1.03600519941176470588
L3 dynamic energy (J)  : .00167410540501000000
L3 static energy (J)   : 5.48889257647058823528
Mem dynamic energy (J) : .00068780000000000000
Mem static energy (J)  : .03136081764705882352
