[H[2J[0;91mHello, rakeshr1. today is, Fri May 24 15:59:11 PDT 2013
[1;33m
      May 2013        
Su Mo Tu We Th Fr Sa  
          1  2  3  4  
 5  6  7  8  9 10 11  
12 13 14 15 16 17 18  
19 20 21 22 23 _2_4 25  
26 27 28 29 30 31     
                      

[1;35mSysinfo: 15:59:11 up 314 days, 15:07,  1 user,  load average: 0.68, 0.27, 0.18

[H] Starting zsim, built Thu May 9 11:57:36 PDT 2013
[H] Creating global segment, 1024 MBs
[H] Global segment shmid = 40271879
[H] Deadlock detection ON
[S 0] Started instance
[S 0] Limiting concurrent threads to 1
[S 0] Started RR scheduler, quantum=10000 phases
[S 0] l2's children are all terminal, interleaving them
[S 0] Initialized system
[S 0] HDF5 backend: Opening /vgates/horowitz/users/rakeshr1/spring/ee282-pa2/exercise-1/simulations/swaptions_wide_4_4_1700_L1_32_4_L2_512_8_L3_8192_16_MEMBW_6400/zsim-ev.h5
[S 0] HDF5 backend: Created table, 2560 bytes/record, 52 records/write
[S 0] HDF5 backend: Opening /vgates/horowitz/users/rakeshr1/spring/ee282-pa2/exercise-1/simulations/swaptions_wide_4_4_1700_L1_32_4_L2_512_8_L3_8192_16_MEMBW_6400/zsim-cmp.h5
[S 0] HDF5 backend: Created table, 1360 bytes/record, 1 records/write
[S 0] Initialization complete
[H] Attached to global heap
[S 0] Started process, PID 20144
[S 0] procMask: 0x0
[S 0] [0] Adjusting clocks, domain 0, de-ffwd 0
[S 0] Offsets: 1369436351957625613 27184051675536002 69696747 63268315831679924
[S 0] vDSO info initialized
[S 0] FF thread 0 starting
[S 0] FF control Thread TID 20149
[S 0] Started contention simulation thread 0
[S 0] Started scheduler watchdog thread
PARSEC Benchmark Suite
[S 0] ROI_BEGIN, exiting fast-forward
[S 0] [0] Adjusting clocks, domain 0, de-ffwd 1
[S 0] Offsets: 1369436354639529606 27184054357440031 2044786102 63268322073515685
[S 0] Thread 0 starting
[S 0] Thread 4 starting
[S 0] Thread 5 starting
[S 0] Thread 6 starting
[S 0] Max total (aggregate) instructions reached (5000173099)
[S 0] Termination condition met, exiting
[S 0] Termination condition met, exiting
[S 0] Termination condition met, exiting
[S 0] Termination condition met, exiting
[H] Child 20144 done
[H] All children done, exiting
Cores                  : 4
Frequency (MHz)        : 1700
Voltage (V)            : 1.07823
Area (mm^2)            : 189

Time (s)               : .46605882352941176470
Total energy (J)       : 15.24067055605312942667
Energy-Delay Product   : 7.10304898915346732035

Core dynamic energy (J): 7.08097888128990245622
Core static energy (J) : 2.64053325834125999996
L1 dynamic energy (J)  : .02978025778692450000
L1 static energy (J)   : .07088027654117647058
L2 dynamic energy (J)  : .22266605289333600000
L2 static energy (J)   : 1.03935032541176470586
L3 dynamic energy (J)  : .00206392320053000000
L3 static energy (J)   : 4.12996162235294117641
Mem dynamic energy (J) : .00085940000000000000
Mem static energy (J)  : .02359655823529411764
