[H[2J[0;91mHello, rakeshr1. today is, Fri May 24 15:59:06 PDT 2013
[1;33m
      May 2013        
Su Mo Tu We Th Fr Sa  
          1  2  3  4  
 5  6  7  8  9 10 11  
12 13 14 15 16 17 18  
19 20 21 22 23 _2_4 25  
26 27 28 29 30 31     
                      

[1;35mSysinfo: 15:59:06 up 314 days, 15:07,  1 user,  load average: 0.30, 0.19, 0.15

[H] Starting zsim, built Thu May 9 11:57:36 PDT 2013
[H] Creating global segment, 1024 MBs
[H] Global segment shmid = 40075270
[H] Deadlock detection ON
[S 0] Started instance
[S 0] Limiting concurrent threads to 1
[S 0] Started RR scheduler, quantum=10000 phases
[S 0] l2's children are all terminal, interleaving them
[S 0] Initialized system
[S 0] HDF5 backend: Opening /vgates/horowitz/users/rakeshr1/spring/ee282-pa2/exercise-1/simulations/fluidanimate_wide_6_6_1700_L1_32_4_L2_512_8_L3_8192_16_MEMBW_6400/zsim-ev.h5
[S 0] HDF5 backend: Created table, 3376 bytes/record, 39 records/write
[S 0] HDF5 backend: Opening /vgates/horowitz/users/rakeshr1/spring/ee282-pa2/exercise-1/simulations/fluidanimate_wide_6_6_1700_L1_32_4_L2_512_8_L3_8192_16_MEMBW_6400/zsim-cmp.h5
[S 0] HDF5 backend: Created table, 1376 bytes/record, 1 records/write
[S 0] Initialization complete
[H] Attached to global heap
[S 0] Started process, PID 19488
[S 0] procMask: 0x0
[S 0] [0] Adjusting clocks, domain 0, de-ffwd 0
[S 0] Offsets: 1369436346709613356 27184046427523752 64745462 63268303617504013
[S 0] vDSO info initialized
[S 0] FF control Thread TID 19493
[S 0] FF thread 0 starting
[S 0] Started contention simulation thread 0
[S 0] Started scheduler watchdog thread
PARSEC Benchmark Suite
[PARSEC] Benchmark begin
[S 0] Shadow/NOP thread 0 finished
[S 0] Finished, code 1
[S 0] Finished scheduler watchdog thread
[H] Child 19488 done
[H] All children done, exiting
Cores                  : 6
Frequency (MHz)        : 1700
Voltage (V)            : 1.07823
Area (mm^2)            : 268

Time (s)               : 0
Total energy (J)       : 0
Energy-Delay Product   : 0

Core dynamic energy (J): 0
Core static energy (J) : 0
L1 dynamic energy (J)  : 0
L1 static energy (J)   : 0
L2 dynamic energy (J)  : 0
L2 static energy (J)   : 0
L3 dynamic energy (J)  : 0
L3 static energy (J)   : 0
Mem dynamic energy (J) : 0
Mem static energy (J)  : 0
