[H[2J[0;91mHello, rakeshr1. today is, Fri May 24 15:59:08 PDT 2013
[1;33m
      May 2013        
Su Mo Tu We Th Fr Sa  
          1  2  3  4  
 5  6  7  8  9 10 11  
12 13 14 15 16 17 18  
19 20 21 22 23 _2_4 25  
26 27 28 29 30 31     
                      

[1;35mSysinfo: 15:59:08 up 314 days, 15:07,  1 user,  load average: 0.25, 0.27, 0.23

[H] Starting zsim, built Thu May 9 11:57:36 PDT 2013
[H] Creating global segment, 1024 MBs
[H] Global segment shmid = 32636933
[H] Deadlock detection ON
[S 0] Started instance
[S 0] Limiting concurrent threads to 1
[S 0] Started RR scheduler, quantum=10000 phases
[S 0] l2's children are all terminal, interleaving them
[S 0] Initialized system
[S 0] HDF5 backend: Opening /vgates/horowitz/users/rakeshr1/spring/ee282-pa2/exercise-1/simulations/streamcluster_wide_5_5_1700_L1_32_4_L2_512_8_L3_8192_16_MEMBW_6400/zsim-ev.h5
[S 0] HDF5 backend: Created table, 2968 bytes/record, 45 records/write
[S 0] HDF5 backend: Opening /vgates/horowitz/users/rakeshr1/spring/ee282-pa2/exercise-1/simulations/streamcluster_wide_5_5_1700_L1_32_4_L2_512_8_L3_8192_16_MEMBW_6400/zsim-cmp.h5
[S 0] HDF5 backend: Created table, 1368 bytes/record, 1 records/write
[S 0] Initialization complete
[H] Attached to global heap
[S 0] Started process, PID 12338
[S 0] procMask: 0x0
[S 0] [0] Adjusting clocks, domain 0, de-ffwd 0
[S 0] Offsets: 1369436349088657293 27184051116480613 62461660 63268700104435434
[S 0] vDSO info initialized
[S 0] Started contention simulation thread 0
[S 0] FF thread 0 starting
[S 0] FF control Thread TID 12343
[S 0] Started scheduler watchdog thread
PARSEC Benchmark Suite
[S 0] ROI_BEGIN, exiting fast-forward
[S 0] [0] Adjusting clocks, domain 0, de-ffwd 1
[S 0] Offsets: 1369436350850726919 27184052878550260 1818675691 63268704205488376
[S 0] Thread 0 starting
[S 0] Thread 4 starting
[S 0] Thread 5 starting
[S 0] Thread 6 starting
[S 0] Thread 7 starting
[S 0] Max total (aggregate) instructions reached (5000093317)
[S 0] Termination condition met, exiting
[S 0] Termination condition met, exiting
[S 0] Termination condition met, exiting
[S 0] Termination condition met, exiting
[S 0] Termination condition met, exiting
[H] Child 12338 done
[H] All children done, exiting
Cores                  : 5
Frequency (MHz)        : 1700
Voltage (V)            : 1.07823
Area (mm^2)            : 228

Time (s)               : 1.77858823529411764705
Total energy (J)       : 49.34417651412092474368
Energy-Delay Product   : 87.76297182829178120838

Core dynamic energy (J): 7.08086589826993059684
Core static energy (J) : 12.59610684071789999990
L1 dynamic energy (J)  : .02683550046640050000
L1 static energy (J)   : .33811940576470588235
L2 dynamic energy (J)  : .31017606275658600000
L2 static energy (J)   : 4.95800145764705882350
L3 dynamic energy (J)  : .07790312261599000000
L3 static energy (J)   : 15.76088850352941176462
Mem dynamic energy (J) : 8.10522980000000000000
Mem static energy (J)  : .09004992235294117647
