[H[2J[0;91mHello, rakeshr1. today is, Fri May 24 15:59:24 PDT 2013
[1;33m
      May 2013        
Su Mo Tu We Th Fr Sa  
          1  2  3  4  
 5  6  7  8  9 10 11  
12 13 14 15 16 17 18  
19 20 21 22 23 _2_4 25  
26 27 28 29 30 31     
                      

[1;35mSysinfo: 15:59:24 up 314 days, 15:07,  1 user,  load average: 0.16, 0.14, 0.14

[H] Starting zsim, built Thu May 9 11:57:36 PDT 2013
[H] Creating global segment, 1024 MBs
[H] Global segment shmid = 17465347
[H] Deadlock detection ON
[S 0] Started instance
[S 0] Limiting concurrent threads to 1
[S 0] Started RR scheduler, quantum=10000 phases
[S 0] l2's children are all terminal, interleaving them
[S 0] Initialized system
[S 0] HDF5 backend: Opening /vgates/horowitz/users/rakeshr1/spring/ee282-pa2/exercise-1/simulations/art_wide_5_5_1700_L1_32_4_L2_512_8_L3_8192_16_MEMBW_6400/zsim-ev.h5
[S 0] HDF5 backend: Created table, 2968 bytes/record, 45 records/write
[S 0] HDF5 backend: Opening /vgates/horowitz/users/rakeshr1/spring/ee282-pa2/exercise-1/simulations/art_wide_5_5_1700_L1_32_4_L2_512_8_L3_8192_16_MEMBW_6400/zsim-cmp.h5
[S 0] HDF5 backend: Created table, 1368 bytes/record, 1 records/write
[S 0] Initialization complete
[H] Attached to global heap
[S 0] Started process, PID 30291
[S 0] procMask: 0x0
[S 0] [0] Adjusting clocks, domain 0, de-ffwd 0
[S 0] Offsets: 1369436368710190011 27184068231082367 74521402 63269284644294337
[S 0] vDSO info initialized
[S 0] FF control Thread TID 30310
[S 0] Started scheduler watchdog thread
[S 0] Started contention simulation thread 0
[S 0] FF thread 0 starting
[S 0] FF thread 4 starting
[S 0] FF thread 5 starting
[S 0] FF thread 6 starting
[S 0] FF thread 7 starting
[H] Some fast-forwarding is going on, not doing deadlock detection (a: 1, ff: 1, sff: 1)
[S 0] ROI_BEGIN, exiting fast-forward
[S 0] [0] Adjusting clocks, domain 0, de-ffwd 1
[S 0] Offsets: 1369436388578903018 27184088099795410 19465409273 63269330887229299
[S 0] Thread 0 starting
[S 0] Thread 4 starting
[S 0] Thread 5 starting
[S 0] Thread 7 starting
[S 0] Thread 6 starting
[S 0] Max total (aggregate) instructions reached (5000276057)
[S 0] Termination condition met, exiting
[S 0] Termination condition met, exiting
[S 0] Termination condition met, exiting
[S 0] Termination condition met, exiting
[S 0] Termination condition met, exiting
[S 0] Finished scheduler watchdog thread
[H] Child 30291 done
[H] All children done, exiting
Cores                  : 5
Frequency (MHz)        : 1700
Voltage (V)            : 1.07823
Area (mm^2)            : 228

Time (s)               : .52688235294117647058
Total energy (J)       : 20.60889048183811664217
Energy-Delay Product   : 10.85846070857788298594

Core dynamic energy (J): 7.08112468492694167180
Core static energy (J) : 3.73142376545542499990
L1 dynamic energy (J)  : .03525882514059150000
L1 static energy (J)   : .10016323314705882352
L2 dynamic energy (J)  : .24677802143935200000
L2 static energy (J)   : 1.46873988147058823527
L3 dynamic energy (J)  : .50214192143463000000
L3 static energy (J)   : 4.66894689529411764698
Mem dynamic energy (J) : 2.74763720000000000000
Mem static energy (J)  : .02667605352941176470
