[H[2J[0;91mHello, rakeshr1. today is, Fri May 24 20:29:41 PDT 2013
[1;33m
      May 2013        
Su Mo Tu We Th Fr Sa  
          1  2  3  4  
 5  6  7  8  9 10 11  
12 13 14 15 16 17 18  
19 20 21 22 23 _2_4 25  
26 27 28 29 30 31     
                      

[1;35mSysinfo: 20:29:41 up 186 days,  6:17,  0 users,  load average: 2.08, 1.02, 0.44

[H] Starting zsim, built Thu May 9 11:57:36 PDT 2013
[H] Creating global segment, 1024 MBs
[H] Global segment shmid = 32604163
[H] Deadlock detection ON
[S 0] Started instance
[S 0] Limiting concurrent threads to 1
[S 0] Started RR scheduler, quantum=10000 phases
[S 0] l2's children are all terminal, interleaving them
[S 0] Initialized system
[S 0] HDF5 backend: Opening /vgates/horowitz/users/rakeshr1/spring/ee282-pa2/exercise-2/part-b/art_wide_8_8_1700_L1_32_4_L2_512_8_L3_8192_16_MEMBW_4200/zsim-ev.h5
[S 0] HDF5 backend: Created table, 4192 bytes/record, 32 records/write
[S 0] HDF5 backend: Opening /vgates/horowitz/users/rakeshr1/spring/ee282-pa2/exercise-2/part-b/art_wide_8_8_1700_L1_32_4_L2_512_8_L3_8192_16_MEMBW_4200/zsim-cmp.h5
[S 0] HDF5 backend: Created table, 1392 bytes/record, 1 records/write
[S 0] Initialization complete
[H] Attached to global heap
[S 0] Started process, PID 2531
[S 0] procMask: 0x0
[S 0] [0] Adjusting clocks, domain 0, de-ffwd 0
[S 0] Offsets: 1369452581950283390 16093062696586608 70008874 37455743819705603
[S 0] vDSO info initialized
[S 0] Started contention simulation thread 0
[S 0] FF thread 0 starting
[S 0] Started scheduler watchdog thread
[S 0] FF control Thread TID 2543
[S 0] FF thread 4 starting
[S 0] FF thread 5 starting
[S 0] FF thread 6 starting
[S 0] FF thread 7 starting
[S 0] FF thread 8 starting
[S 0] FF thread 9 starting
[S 0] FF thread 10 starting
[H] Some fast-forwarding is going on, not doing deadlock detection (a: 1, ff: 1, sff: 1)
[S 0] ROI_BEGIN, exiting fast-forward
[S 0] [0] Adjusting clocks, domain 0, de-ffwd 1
[S 0] Offsets: 1369452601936956391 16093082683259678 19934074028 37455790337075166
[S 0] Thread 0 starting
[S 0] Thread 4 starting
[S 0] Thread 5 starting
[S 0] Thread 7 starting
[S 0] Thread 10 starting
[S 0] Thread 6 starting
[S 0] Thread 9 starting
[S 0] Thread 8 starting
[S 0] Max total (aggregate) instructions reached (5000020225)
[S 0] Termination condition met, exiting
[S 0] Termination condition met, exiting
[S 0] Termination condition met, exiting
[S 0] Termination condition met, exiting
[S 0] Termination condition met, exiting
[S 0] Termination condition met, exiting
[S 0] Termination condition met, exiting
[S 0] Termination condition met, exiting
[H] Child 2531 done
[H] All children done, exiting
Cores                  : 8
Frequency (MHz)        : 1700
Voltage (V)            : 1.07823
Area (mm^2)            : 347

Time (s)               : 1.39082352941176470588
Total energy (J)       : 60.09663498568305922370
Energy-Delay Product   : 83.58381397655825013427

Core dynamic energy (J): 7.08076238927171316502
Core static energy (J) : 15.75988094414255999992
L1 dynamic energy (J)  : .03496452582597300000
L1 static energy (J)   : .42304512395294117646
L2 dynamic energy (J)  : .20058740185278600000
L2 static energy (J)   : 6.20330659952941176469
L3 dynamic energy (J)  : .49946753287238000000
L3 static energy (J)   : 12.32472707294117647056
Mem dynamic energy (J) : 17.49947600000000000000
Mem static energy (J)  : .07041739529411764705
