# zsim stats
===
root: # Stats
 contention: # Contention simulation stats
  domain-0: # Domain stats
   time: 1323966044 # Weave simulation time
 time: # Simulator time breakdown
  init: 20236891529
  bound: 1283571052912
  weave: 2725011156
  ff: 0
 trigger: 20000 # Reason for this stats dump
 phase: 23644 # Simulated phases
 core: # Core stats
  core-0: # Core stats
   cycles: 2364168907 # Simulated unhalted cycles
   cCycles: 0 # Cycles due to contention stalls
   instrs: 629393625 # Simulated instructions
   uops: 643871018 # Retired micro-ops
   bbls: 101270371 # Basic blocks
   approxInstrs: 7660122 # Instrs with approx uop decoding
   mispredBranches: 5293 # Mispredicted branches
   fetchStalls: 1358325 # Fetch stalls
   decodeStalls: 163162587 # Decode stalls
   issueStalls: 16610283 # Issue stalls
  core-1: # Core stats
   cycles: 2364293309 # Simulated unhalted cycles
   cCycles: 0 # Cycles due to contention stalls
   instrs: 606044257 # Simulated instructions
   uops: 620381135 # Retired micro-ops
   bbls: 97407945 # Basic blocks
   approxInstrs: 7360119 # Instrs with approx uop decoding
   mispredBranches: 5167 # Mispredicted branches
   fetchStalls: 1324008 # Fetch stalls
   decodeStalls: 157306647 # Decode stalls
   issueStalls: 16005662 # Issue stalls
  core-2: # Core stats
   cycles: 2364237805 # Simulated unhalted cycles
   cCycles: 0 # Cycles due to contention stalls
   instrs: 655278649 # Simulated instructions
   uops: 670971412 # Retired micro-ops
   bbls: 105246159 # Basic blocks
   approxInstrs: 7960094 # Instrs with approx uop decoding
   mispredBranches: 5755 # Mispredicted branches
   fetchStalls: 1483249 # Fetch stalls
   decodeStalls: 170226892 # Decode stalls
   issueStalls: 17605152 # Issue stalls
  core-3: # Core stats
   cycles: 2364342927 # Simulated unhalted cycles
   cCycles: 0 # Cycles due to contention stalls
   instrs: 609985403 # Simulated instructions
   uops: 624203658 # Retired micro-ops
   bbls: 98093514 # Basic blocks
   approxInstrs: 7420004 # Instrs with approx uop decoding
   mispredBranches: 5117 # Mispredicted branches
   fetchStalls: 1268692 # Fetch stalls
   decodeStalls: 158242816 # Decode stalls
   issueStalls: 16349603 # Issue stalls
  core-4: # Core stats
   cycles: 2364252365 # Simulated unhalted cycles
   cCycles: 0 # Cycles due to contention stalls
   instrs: 654522563 # Simulated instructions
   uops: 669865250 # Retired micro-ops
   bbls: 105223105 # Basic blocks
   approxInstrs: 7960100 # Instrs with approx uop decoding
   mispredBranches: 5563 # Mispredicted branches
   fetchStalls: 1248651 # Fetch stalls
   decodeStalls: 169853408 # Decode stalls
   issueStalls: 17625186 # Issue stalls
  core-5: # Core stats
   cycles: 2364196966 # Simulated unhalted cycles
   cCycles: 0 # Cycles due to contention stalls
   instrs: 606804854 # Simulated instructions
   uops: 621492693 # Retired micro-ops
   bbls: 97431599 # Basic blocks
   approxInstrs: 7360117 # Instrs with approx uop decoding
   mispredBranches: 5271 # Mispredicted branches
   fetchStalls: 1036321 # Fetch stalls
   decodeStalls: 157682264 # Decode stalls
   issueStalls: 15735554 # Issue stalls
  core-6: # Core stats
   cycles: 2364303562 # Simulated unhalted cycles
   cCycles: 0 # Cycles due to contention stalls
   instrs: 625822953 # Simulated instructions
   uops: 640885720 # Retired micro-ops
   bbls: 100499456 # Basic blocks
   approxInstrs: 7600068 # Instrs with approx uop decoding
   mispredBranches: 5538 # Mispredicted branches
   fetchStalls: 2301977 # Fetch stalls
   decodeStalls: 162608827 # Decode stalls
   issueStalls: 16881451 # Issue stalls
  core-7: # Core stats
   cycles: 2364042055 # Simulated unhalted cycles
   cCycles: 0 # Cycles due to contention stalls
   instrs: 612167921 # Simulated instructions
   uops: 627108938 # Retired micro-ops
   bbls: 98262696 # Basic blocks
   approxInstrs: 7420121 # Instrs with approx uop decoding
   mispredBranches: 5425 # Mispredicted branches
   fetchStalls: 1504312 # Fetch stalls
   decodeStalls: 159170015 # Decode stalls
   issueStalls: 16609198 # Issue stalls
 l1i: # Cache stats
  l1i-0: # Filter cache stats
   fhGETS: 109554799 # Filtered GETS hits
   fhGETX: 0 # Filtered GETX hits
   hGETS: 41211 # GETS hits
   hGETX: 0 # GETX hits
   mGETS: 17270 # GETS misses
   mGETXIM: 0 # GETX I->M misses
   mGETXSM: 0 # GETX S->M misses (upgrade misses)
   PUTS: 0 # Clean evictions (from lower level)
   PUTX: 0 # Dirty evictions (from lower level)
   INV: 17269 # Invalidates (from upper level)
   INVX: 0 # Downgrades (from upper level)
   FWD: 0 # Forwards (from upper level)
   latGETnl: 1690963 # GET request latency on next level
   latGETnet: 0 # GET request latency on network to next level
  l1i-1: # Filter cache stats
   fhGETS: 105372476 # Filtered GETS hits
   fhGETX: 0 # Filtered GETX hits
   hGETS: 41191 # GETS hits
   hGETX: 0 # GETX hits
   mGETS: 16608 # GETS misses
   mGETXIM: 0 # GETX I->M misses
   mGETXSM: 0 # GETX S->M misses (upgrade misses)
   PUTS: 0 # Clean evictions (from lower level)
   PUTX: 0 # Dirty evictions (from lower level)
   INV: 16606 # Invalidates (from upper level)
   INVX: 0 # Downgrades (from upper level)
   FWD: 0 # Forwards (from upper level)
   latGETnl: 1614361 # GET request latency on next level
   latGETnet: 0 # GET request latency on network to next level
  l1i-2: # Filter cache stats
   fhGETS: 113880314 # Filtered GETS hits
   fhGETX: 0 # Filtered GETX hits
   hGETS: 41125 # GETS hits
   hGETX: 0 # GETX hits
   mGETS: 18015 # GETS misses
   mGETXIM: 0 # GETX I->M misses
   mGETXSM: 0 # GETX S->M misses (upgrade misses)
   PUTS: 0 # Clean evictions (from lower level)
   PUTX: 0 # Dirty evictions (from lower level)
   INV: 18011 # Invalidates (from upper level)
   INVX: 0 # Downgrades (from upper level)
   FWD: 0 # Forwards (from upper level)
   latGETnl: 1827244 # GET request latency on next level
   latGETnet: 0 # GET request latency on network to next level
  l1i-3: # Filter cache stats
   fhGETS: 106127206 # Filtered GETS hits
   fhGETX: 0 # Filtered GETX hits
   hGETS: 40058 # GETS hits
   hGETX: 0 # GETX hits
   mGETS: 16807 # GETS misses
   mGETXIM: 0 # GETX I->M misses
   mGETXSM: 0 # GETX S->M misses (upgrade misses)
   PUTS: 0 # Clean evictions (from lower level)
   PUTX: 0 # Dirty evictions (from lower level)
   INV: 16803 # Invalidates (from upper level)
   INVX: 0 # Downgrades (from upper level)
   FWD: 0 # Forwards (from upper level)
   latGETnl: 1552854 # GET request latency on next level
   latGETnet: 0 # GET request latency on network to next level
  l1i-4: # Filter cache stats
   fhGETS: 113846339 # Filtered GETS hits
   fhGETX: 0 # Filtered GETX hits
   hGETS: 41016 # GETS hits
   hGETX: 0 # GETX hits
   mGETS: 17958 # GETS misses
   mGETXIM: 0 # GETX I->M misses
   mGETXSM: 0 # GETX S->M misses (upgrade misses)
   PUTS: 0 # Clean evictions (from lower level)
   PUTX: 0 # Dirty evictions (from lower level)
   INV: 17954 # Invalidates (from upper level)
   INVX: 0 # Downgrades (from upper level)
   FWD: 0 # Forwards (from upper level)
   latGETnl: 1533483 # GET request latency on next level
   latGETnet: 0 # GET request latency on network to next level
  l1i-5: # Filter cache stats
   fhGETS: 105406529 # Filtered GETS hits
   fhGETX: 0 # Filtered GETX hits
   hGETS: 41183 # GETS hits
   hGETX: 0 # GETX hits
   mGETS: 16634 # GETS misses
   mGETXIM: 0 # GETX I->M misses
   mGETXSM: 0 # GETX S->M misses (upgrade misses)
   PUTS: 0 # Clean evictions (from lower level)
   PUTX: 0 # Dirty evictions (from lower level)
   INV: 16632 # Invalidates (from upper level)
   INVX: 0 # Downgrades (from upper level)
   FWD: 0 # Forwards (from upper level)
   latGETnl: 1218566 # GET request latency on next level
   latGETnet: 0 # GET request latency on network to next level
  l1i-6: # Filter cache stats
   fhGETS: 108743126 # Filtered GETS hits
   fhGETX: 0 # Filtered GETX hits
   hGETS: 40712 # GETS hits
   hGETX: 0 # GETX hits
   mGETS: 17379 # GETS misses
   mGETXIM: 0 # GETX I->M misses
   mGETXSM: 0 # GETX S->M misses (upgrade misses)
   PUTS: 0 # Clean evictions (from lower level)
   PUTX: 0 # Dirty evictions (from lower level)
   INV: 17375 # Invalidates (from upper level)
   INVX: 0 # Downgrades (from upper level)
   FWD: 0 # Forwards (from upper level)
   latGETnl: 3092478 # GET request latency on next level
   latGETnet: 0 # GET request latency on network to next level
  l1i-7: # Filter cache stats
   fhGETS: 106317642 # Filtered GETS hits
   fhGETX: 0 # Filtered GETX hits
   hGETS: 41231 # GETS hits
   hGETX: 0 # GETX hits
   mGETS: 17202 # GETS misses
   mGETXIM: 0 # GETX I->M misses
   mGETXSM: 0 # GETX S->M misses (upgrade misses)
   PUTS: 0 # Clean evictions (from lower level)
   PUTX: 0 # Dirty evictions (from lower level)
   INV: 17200 # Invalidates (from upper level)
   INVX: 0 # Downgrades (from upper level)
   FWD: 0 # Forwards (from upper level)
   latGETnl: 1869603 # GET request latency on next level
   latGETnet: 0 # GET request latency on network to next level
 l1d: # Cache stats
  l1d-0: # Filter cache stats
   fhGETS: 117407831 # Filtered GETS hits
   fhGETX: 28717215 # Filtered GETX hits
   hGETS: 2854904 # GETS hits
   hGETX: 12203658 # GETX hits
   mGETS: 25092791 # GETS misses
   mGETXIM: 4628704 # GETX I->M misses
   mGETXSM: 205 # GETX S->M misses (upgrade misses)
   PUTS: 0 # Clean evictions (from lower level)
   PUTX: 0 # Dirty evictions (from lower level)
   INV: 6898 # Invalidates (from upper level)
   INVX: 455893 # Downgrades (from upper level)
   FWD: 0 # Forwards (from upper level)
   latGETnl: 6194948914 # GET request latency on next level
   latGETnet: 0 # GET request latency on network to next level
  l1d-1: # Filter cache stats
   fhGETS: 110108508 # Filtered GETS hits
   fhGETX: 24261194 # Filtered GETX hits
   hGETS: 6186304 # GETS hits
   hGETX: 15246597 # GETX hits
   mGETS: 24132253 # GETS misses
   mGETXIM: 4462029 # GETX I->M misses
   mGETXSM: 162 # GETX S->M misses (upgrade misses)
   PUTS: 0 # Clean evictions (from lower level)
   PUTX: 0 # Dirty evictions (from lower level)
   INV: 6604 # Invalidates (from upper level)
   INVX: 256520 # Downgrades (from upper level)
   FWD: 0 # Forwards (from upper level)
   latGETnl: 6161592625 # GET request latency on next level
   latGETnet: 0 # GET request latency on network to next level
  l1d-2: # Filter cache stats
   fhGETS: 122873368 # Filtered GETS hits
   fhGETX: 30162879 # Filtered GETX hits
   hGETS: 2878478 # GETS hits
   hGETX: 12652395 # GETX hits
   mGETS: 26094311 # GETS misses
   mGETXIM: 4837289 # GETX I->M misses
   mGETXSM: 7113 # GETX S->M misses (upgrade misses)
   PUTS: 0 # Clean evictions (from lower level)
   PUTX: 0 # Dirty evictions (from lower level)
   INV: 6810 # Invalidates (from upper level)
   INVX: 507131 # Downgrades (from upper level)
   FWD: 0 # Forwards (from upper level)
   latGETnl: 6836118736 # GET request latency on next level
   latGETnet: 0 # GET request latency on network to next level
  l1d-3: # Filter cache stats
   fhGETS: 110444892 # Filtered GETS hits
   fhGETX: 24393404 # Filtered GETX hits
   hGETS: 6213355 # GETS hits
   hGETX: 15350797 # GETX hits
   mGETS: 24313984 # GETS misses
   mGETXIM: 4492371 # GETX I->M misses
   mGETXSM: 262 # GETX S->M misses (upgrade misses)
   PUTS: 0 # Clean evictions (from lower level)
   PUTX: 0 # Dirty evictions (from lower level)
   INV: 10607 # Invalidates (from upper level)
   INVX: 296200 # Downgrades (from upper level)
   FWD: 0 # Forwards (from upper level)
   latGETnl: 6183064734 # GET request latency on next level
   latGETnet: 0 # GET request latency on network to next level
  l1d-4: # Filter cache stats
   fhGETS: 111130710 # Filtered GETS hits
   fhGETX: 26249585 # Filtered GETX hits
   hGETS: 14154628 # GETS hits
   hGETX: 16416499 # GETX hits
   mGETS: 26088727 # GETS misses
   mGETXIM: 4821834 # GETX I->M misses
   mGETXSM: 184 # GETX S->M misses (upgrade misses)
   PUTS: 0 # Clean evictions (from lower level)
   PUTX: 0 # Dirty evictions (from lower level)
   INV: 12044 # Invalidates (from upper level)
   INVX: 442626 # Downgrades (from upper level)
   FWD: 0 # Forwards (from upper level)
   latGETnl: 6670563768 # GET request latency on next level
   latGETnet: 0 # GET request latency on network to next level
  l1d-5: # Filter cache stats
   fhGETS: 110769581 # Filtered GETS hits
   fhGETX: 24446646 # Filtered GETX hits
   hGETS: 5990503 # GETS hits
   hGETX: 15217840 # GETX hits
   mGETS: 24144848 # GETS misses
   mGETXIM: 4476586 # GETX I->M misses
   mGETXSM: 167 # GETX S->M misses (upgrade misses)
   PUTS: 0 # Clean evictions (from lower level)
   PUTX: 0 # Dirty evictions (from lower level)
   INV: 9138 # Invalidates (from upper level)
   INVX: 204564 # Downgrades (from upper level)
   FWD: 0 # Forwards (from upper level)
   latGETnl: 6073834152 # GET request latency on next level
   latGETnet: 0 # GET request latency on network to next level
  l1d-6: # Filter cache stats
   fhGETS: 113741349 # Filtered GETS hits
   fhGETX: 25176873 # Filtered GETX hits
   hGETS: 6410919 # GETS hits
   hGETX: 15747837 # GETX hits
   mGETS: 24917912 # GETS misses
   mGETXIM: 4622235 # GETX I->M misses
   mGETXSM: 142 # GETX S->M misses (upgrade misses)
   PUTS: 0 # Clean evictions (from lower level)
   PUTX: 0 # Dirty evictions (from lower level)
   INV: 10777 # Invalidates (from upper level)
   INVX: 519087 # Downgrades (from upper level)
   FWD: 0 # Forwards (from upper level)
   latGETnl: 6117062552 # GET request latency on next level
   latGETnet: 0 # GET request latency on network to next level
  l1d-7: # Filter cache stats
   fhGETS: 111582068 # Filtered GETS hits
   fhGETX: 24729077 # Filtered GETX hits
   hGETS: 6216788 # GETS hits
   hGETX: 15363691 # GETX hits
   mGETS: 24350653 # GETS misses
   mGETXIM: 4532135 # GETX I->M misses
   mGETXSM: 355 # GETX S->M misses (upgrade misses)
   PUTS: 0 # Clean evictions (from lower level)
   PUTX: 0 # Dirty evictions (from lower level)
   INV: 6714 # Invalidates (from upper level)
   INVX: 353464 # Downgrades (from upper level)
   FWD: 0 # Forwards (from upper level)
   latGETnl: 6247411673 # GET request latency on next level
   latGETnet: 0 # GET request latency on network to next level
 l2: # Cache stats
  l2-0: # Cache stats
   hGETS: 48 # GETS hits
   hGETX: 14 # GETX hits
   mGETS: 25110013 # GETS misses
   mGETXIM: 4628690 # GETX I->M misses
   mGETXSM: 205 # GETX S->M misses (upgrade misses)
   PUTS: 13595213 # Clean evictions (from lower level)
   PUTX: 16118872 # Dirty evictions (from lower level)
   INV: 154987 # Invalidates (from upper level)
   INVX: 981654 # Downgrades (from upper level)
   FWD: 0 # Forwards (from upper level)
   latGETnl: 5958728117 # GET request latency on next level
   latGETnet: 0 # GET request latency on network to next level
  l2-1: # Cache stats
   hGETS: 142 # GETS hits
   hGETX: 0 # GETX hits
   mGETS: 24148719 # GETS misses
   mGETXIM: 4462029 # GETX I->M misses
   mGETXSM: 162 # GETX S->M misses (upgrade misses)
   PUTS: 13084292 # Clean evictions (from lower level)
   PUTX: 15502874 # Dirty evictions (from lower level)
   INV: 372226 # Invalidates (from upper level)
   INVX: 662801 # Downgrades (from upper level)
   FWD: 0 # Forwards (from upper level)
   latGETnl: 5934318570 # GET request latency on next level
   latGETnet: 0 # GET request latency on network to next level
  l2-2: # Cache stats
   hGETS: 4 # GETS hits
   hGETX: 1 # GETX hits
   mGETS: 26112322 # GETS misses
   mGETXIM: 4837288 # GETX I->M misses
   mGETXSM: 7113 # GETX S->M misses (upgrade misses)
   PUTS: 14147966 # Clean evictions (from lower level)
   PUTX: 16776312 # Dirty evictions (from lower level)
   INV: 106784 # Invalidates (from upper level)
   INVX: 1071050 # Downgrades (from upper level)
   FWD: 0 # Forwards (from upper level)
   latGETnl: 6590292156 # GET request latency on next level
   latGETnet: 0 # GET request latency on network to next level
  l2-3: # Cache stats
   hGETS: 26 # GETS hits
   hGETX: 4 # GETX hits
   mGETS: 24330765 # GETS misses
   mGETXIM: 4492367 # GETX I->M misses
   mGETXSM: 262 # GETX S->M misses (upgrade misses)
   PUTS: 13173902 # Clean evictions (from lower level)
   PUTX: 15621334 # Dirty evictions (from lower level)
   INV: 228275 # Invalidates (from upper level)
   INVX: 669354 # Downgrades (from upper level)
   FWD: 0 # Forwards (from upper level)
   latGETnl: 5954030196 # GET request latency on next level
   latGETnet: 0 # GET request latency on network to next level
  l2-4: # Cache stats
   hGETS: 3 # GETS hits
   hGETX: 1 # GETX hits
   mGETS: 26106682 # GETS misses
   mGETXIM: 4821833 # GETX I->M misses
   mGETXSM: 184 # GETX S->M misses (upgrade misses)
   PUTS: 14137160 # Clean evictions (from lower level)
   PUTX: 16760845 # Dirty evictions (from lower level)
   INV: 69445 # Invalidates (from upper level)
   INVX: 855897 # Downgrades (from upper level)
   FWD: 0 # Forwards (from upper level)
   latGETnl: 6424667627 # GET request latency on next level
   latGETnet: 0 # GET request latency on network to next level
  l2-5: # Cache stats
   hGETS: 1 # GETS hits
   hGETX: 0 # GETX hits
   mGETS: 24161481 # GETS misses
   mGETXIM: 4476586 # GETX I->M misses
   mGETXSM: 167 # GETX S->M misses (upgrade misses)
   PUTS: 13094198 # Clean evictions (from lower level)
   PUTX: 15517586 # Dirty evictions (from lower level)
   INV: 355585 # Invalidates (from upper level)
   INVX: 601166 # Downgrades (from upper level)
   FWD: 0 # Forwards (from upper level)
   latGETnl: 5845946838 # GET request latency on next level
   latGETnet: 0 # GET request latency on network to next level
  l2-6: # Cache stats
   hGETS: 94 # GETS hits
   hGETX: 15 # GETX hits
   mGETS: 24935197 # GETS misses
   mGETXIM: 4622220 # GETX I->M misses
   mGETXSM: 142 # GETX S->M misses (upgrade misses)
   PUTS: 13508043 # Clean evictions (from lower level)
   PUTX: 16020815 # Dirty evictions (from lower level)
   INV: 217354 # Invalidates (from upper level)
   INVX: 1161947 # Downgrades (from upper level)
   FWD: 0 # Forwards (from upper level)
   latGETnl: 5883693686 # GET request latency on next level
   latGETnet: 0 # GET request latency on network to next level
  l2-7: # Cache stats
   hGETS: 1022 # GETS hits
   hGETX: 377 # GETX hits
   mGETS: 24366833 # GETS misses
   mGETXIM: 4531758 # GETX I->M misses
   mGETXSM: 355 # GETX S->M misses (upgrade misses)
   PUTS: 13212576 # Clean evictions (from lower level)
   PUTX: 15662986 # Dirty evictions (from lower level)
   INV: 174219 # Invalidates (from upper level)
   INVX: 681669 # Downgrades (from upper level)
   FWD: 0 # Forwards (from upper level)
   latGETnl: 6018078516 # GET request latency on next level
   latGETnet: 0 # GET request latency on network to next level
 l3: # Cache stats
  l3-0: # Cache stats
   hGETS: 134126274 # GETS hits
   hGETX: 35377322 # GETX hits
   mGETS: 65145738 # GETS misses
   mGETXIM: 1504039 # GETX I->M misses
   mGETXSM: 0 # GETX S->M misses (upgrade misses)
   PUTS: 107076291 # Clean evictions (from lower level)
   PUTX: 127326448 # Dirty evictions (from lower level)
   INV: 0 # Invalidates (from upper level)
   INVX: 0 # Downgrades (from upper level)
   FWD: 0 # Forwards (from upper level)
   latGETnl: 44529414037 # GET request latency on next level
   latGETnet: 0 # GET request latency on network to next level
 mem: # Memory controller stats
  mem-0: # Memory controller stats
   rd: 66649777 # Read requests
   wr: 20847603 # Write requests
   rdlat: 44529414037 # Total latency experienced by read requests
   wrlat: 14659287903 # Total latency experienced by write requests
   load: 2063078 # Sum of load factors (0-100) per update
   ups: 23636 # Number of latency updates
   clampedLoads: 11079 # Number of updates where the load was clamped to 95%
 sched: # Scheduler stats
  thCr: 8 # Threads created
  thFn: 0 # Threads finished
  schedEvs: 8 # Schedule events
  waitEvs: 0 # Wait events
  handoffEvs: 0 # Handoff events
  sleepEvs: 0 # Sleep events
  idlePhases: 0 # Phases with no thread active
  idlePeriods: 0 # Periods with no thread active
  occHist: # Occupancy histogram
   0: 0
   1: 0
   2: 0
   3: 0
   4: 0
   5: 0
   6: 0
   7: 0
   8: 23644
  rqSzHist: # Run queue size histogram
   0: 23644
   1: 0
   2: 0
   3: 0
   4: 0
   5: 0
   6: 0
   7: 0
   8: 0
   9: 0
   10: 0
   11: 0
   12: 0
   13: 0
   14: 0
   15: 0
   16: 0
 heartbeats: # Per-process heartbeats
  0: 0
  1: 0
  2: 0
  3: 0
  4: 0
  5: 0
  6: 0
  7: 0
  8: 0
  9: 0
  10: 0
  11: 0
  12: 0
  13: 0
  14: 0
  15: 0
  16: 0
  17: 0
  18: 0
  19: 0
  20: 0
  21: 0
  22: 0
  23: 0
  24: 0
  25: 0
  26: 0
  27: 0
  28: 0
  29: 0
  30: 0
  31: 0
  32: 0
  33: 0
  34: 0
  35: 0
  36: 0
  37: 0
  38: 0
  39: 0
  40: 0
  41: 0
  42: 0
  43: 0
  44: 0
  45: 0
  46: 0
  47: 0
  48: 0
  49: 0
  50: 0
  51: 0
  52: 0
  53: 0
  54: 0
  55: 0
  56: 0
  57: 0
  58: 0
  59: 0
  60: 0
  61: 0
  62: 0
  63: 0
===
