# zsim stats
===
root: # Stats
 contention: # Contention simulation stats
  domain-0: # Domain stats
   time: 266855842 # Weave simulation time
 time: # Simulator time breakdown
  init: 2161703793
  bound: 480751300251
  weave: 635119898
  ff: 0
 trigger: 20000 # Reason for this stats dump
 phase: 5372 # Simulated phases
 core: # Core stats
  core-0: # Core stats
   cycles: 522854125 # Simulated unhalted cycles
   cCycles: 0 # Cycles due to contention stalls
   instrs: 834036193 # Simulated instructions
   uops: 1025785751 # Retired micro-ops
   bbls: 126446981 # Basic blocks
   approxInstrs: 279 # Instrs with approx uop decoding
   mispredBranches: 2798283 # Mispredicted branches
   fetchStalls: 47956439 # Fetch stalls
   decodeStalls: 263170592 # Decode stalls
   issueStalls: 50219216 # Issue stalls
  core-1: # Core stats
   cycles: 523868827 # Simulated unhalted cycles
   cCycles: 0 # Cycles due to contention stalls
   instrs: 835035732 # Simulated instructions
   uops: 1026796988 # Retired micro-ops
   bbls: 126629242 # Basic blocks
   approxInstrs: 289 # Instrs with approx uop decoding
   mispredBranches: 2852180 # Mispredicted branches
   fetchStalls: 48871562 # Fetch stalls
   decodeStalls: 263365284 # Decode stalls
   issueStalls: 50359696 # Issue stalls
  core-2: # Core stats
   cycles: 520498089 # Simulated unhalted cycles
   cCycles: 0 # Cycles due to contention stalls
   instrs: 828960923 # Simulated instructions
   uops: 1019340948 # Retired micro-ops
   bbls: 125716797 # Basic blocks
   approxInstrs: 329 # Instrs with approx uop decoding
   mispredBranches: 2841846 # Mispredicted branches
   fetchStalls: 48681238 # Fetch stalls
   decodeStalls: 261454764 # Decode stalls
   issueStalls: 49906729 # Issue stalls
  core-3: # Core stats
   cycles: 528891061 # Simulated unhalted cycles
   cCycles: 0 # Cycles due to contention stalls
   instrs: 844739476 # Simulated instructions
   uops: 1038693320 # Retired micro-ops
   bbls: 128102006 # Basic blocks
   approxInstrs: 205 # Instrs with approx uop decoding
   mispredBranches: 2865219 # Mispredicted branches
   fetchStalls: 49090906 # Fetch stalls
   decodeStalls: 266408634 # Decode stalls
   issueStalls: 50881343 # Issue stalls
  core-4: # Core stats
   cycles: 518297204 # Simulated unhalted cycles
   cCycles: 0 # Cycles due to contention stalls
   instrs: 825759750 # Simulated instructions
   uops: 1015431644 # Retired micro-ops
   bbls: 125225863 # Basic blocks
   approxInstrs: 352 # Instrs with approx uop decoding
   mispredBranches: 2828762 # Mispredicted branches
   fetchStalls: 48462579 # Fetch stalls
   decodeStalls: 260462637 # Decode stalls
   issueStalls: 49645752 # Issue stalls
  core-5: # Core stats
   cycles: 522170572 # Simulated unhalted cycles
   cCycles: 0 # Cycles due to contention stalls
   instrs: 832391283 # Simulated instructions
   uops: 1023516560 # Retired micro-ops
   bbls: 126232070 # Basic blocks
   approxInstrs: 304 # Instrs with approx uop decoding
   mispredBranches: 2853072 # Mispredicted branches
   fetchStalls: 48873789 # Fetch stalls
   decodeStalls: 262516220 # Decode stalls
   issueStalls: 50008763 # Issue stalls
 l1i: # Cache stats
  l1i-0: # Filter cache stats
   fhGETS: 147731857 # Filtered GETS hits
   fhGETX: 0 # Filtered GETX hits
   hGETS: 2106264 # GETS hits
   hGETX: 0 # GETX hits
   mGETS: 80100 # GETS misses
   mGETXIM: 0 # GETX I->M misses
   mGETXSM: 0 # GETX S->M misses (upgrade misses)
   PUTS: 0 # Clean evictions (from lower level)
   PUTX: 0 # Dirty evictions (from lower level)
   INV: 0 # Invalidates (from upper level)
   INVX: 0 # Downgrades (from upper level)
   FWD: 0 # Forwards (from upper level)
   latGETnl: 674254 # GET request latency on next level
   latGETnet: 0 # GET request latency on network to next level
  l1i-1: # Filter cache stats
   fhGETS: 148122930 # Filtered GETS hits
   fhGETX: 0 # Filtered GETX hits
   hGETS: 2123866 # GETS hits
   hGETX: 0 # GETX hits
   mGETS: 77792 # GETS misses
   mGETXIM: 0 # GETX I->M misses
   mGETXSM: 0 # GETX S->M misses (upgrade misses)
   PUTS: 0 # Clean evictions (from lower level)
   PUTX: 0 # Dirty evictions (from lower level)
   INV: 0 # Invalidates (from upper level)
   INVX: 0 # Downgrades (from upper level)
   FWD: 0 # Forwards (from upper level)
   latGETnl: 666429 # GET request latency on next level
   latGETnet: 0 # GET request latency on network to next level
  l1i-2: # Filter cache stats
   fhGETS: 147089117 # Filtered GETS hits
   fhGETX: 0 # Filtered GETX hits
   hGETS: 2115846 # GETS hits
   hGETX: 0 # GETX hits
   mGETS: 77496 # GETS misses
   mGETXIM: 0 # GETX I->M misses
   mGETXSM: 0 # GETX S->M misses (upgrade misses)
   PUTS: 0 # Clean evictions (from lower level)
   PUTX: 0 # Dirty evictions (from lower level)
   INV: 0 # Invalidates (from upper level)
   INVX: 0 # Downgrades (from upper level)
   FWD: 0 # Forwards (from upper level)
   latGETnl: 629362 # GET request latency on next level
   latGETnet: 0 # GET request latency on network to next level
  l1i-3: # Filter cache stats
   fhGETS: 149779288 # Filtered GETS hits
   fhGETX: 0 # Filtered GETX hits
   hGETS: 2132946 # GETS hits
   hGETX: 0 # GETX hits
   mGETS: 79552 # GETS misses
   mGETXIM: 0 # GETX I->M misses
   mGETXSM: 0 # GETX S->M misses (upgrade misses)
   PUTS: 0 # Clean evictions (from lower level)
   PUTX: 0 # Dirty evictions (from lower level)
   INV: 0 # Invalidates (from upper level)
   INVX: 0 # Downgrades (from upper level)
   FWD: 0 # Forwards (from upper level)
   latGETnl: 652977 # GET request latency on next level
   latGETnet: 0 # GET request latency on network to next level
  l1i-4: # Filter cache stats
   fhGETS: 146508680 # Filtered GETS hits
   fhGETX: 0 # Filtered GETX hits
   hGETS: 2106202 # GETS hits
   hGETX: 0 # GETX hits
   mGETS: 77961 # GETS misses
   mGETXIM: 0 # GETX I->M misses
   mGETXSM: 0 # GETX S->M misses (upgrade misses)
   PUTS: 0 # Clean evictions (from lower level)
   PUTX: 0 # Dirty evictions (from lower level)
   INV: 0 # Invalidates (from upper level)
   INVX: 0 # Downgrades (from upper level)
   FWD: 0 # Forwards (from upper level)
   latGETnl: 647020 # GET request latency on next level
   latGETnet: 0 # GET request latency on network to next level
  l1i-5: # Filter cache stats
   fhGETS: 147693751 # Filtered GETS hits
   fhGETX: 0 # Filtered GETX hits
   hGETS: 2120341 # GETS hits
   hGETX: 0 # GETX hits
   mGETS: 77736 # GETS misses
   mGETXIM: 0 # GETX I->M misses
   mGETXSM: 0 # GETX S->M misses (upgrade misses)
   PUTS: 0 # Clean evictions (from lower level)
   PUTX: 0 # Dirty evictions (from lower level)
   INV: 0 # Invalidates (from upper level)
   INVX: 0 # Downgrades (from upper level)
   FWD: 0 # Forwards (from upper level)
   latGETnl: 630308 # GET request latency on next level
   latGETnet: 0 # GET request latency on network to next level
 l1d: # Cache stats
  l1d-0: # Filter cache stats
   fhGETS: 225368357 # Filtered GETS hits
   fhGETX: 58031941 # Filtered GETX hits
   hGETS: 13884662 # GETS hits
   hGETX: 13137196 # GETX hits
   mGETS: 1755330 # GETS misses
   mGETXIM: 1964146 # GETX I->M misses
   mGETXSM: 68467 # GETX S->M misses (upgrade misses)
   PUTS: 0 # Clean evictions (from lower level)
   PUTX: 0 # Dirty evictions (from lower level)
   INV: 144008 # Invalidates (from upper level)
   INVX: 44368 # Downgrades (from upper level)
   FWD: 0 # Forwards (from upper level)
   latGETnl: 40441003 # GET request latency on next level
   latGETnet: 0 # GET request latency on network to next level
  l1d-1: # Filter cache stats
   fhGETS: 224570111 # Filtered GETS hits
   fhGETX: 57559954 # Filtered GETX hits
   hGETS: 14880660 # GETS hits
   hGETX: 13671958 # GETX hits
   mGETS: 1729701 # GETS misses
   mGETXIM: 1938539 # GETX I->M misses
   mGETXSM: 60573 # GETX S->M misses (upgrade misses)
   PUTS: 0 # Clean evictions (from lower level)
   PUTX: 0 # Dirty evictions (from lower level)
   INV: 113545 # Invalidates (from upper level)
   INVX: 41989 # Downgrades (from upper level)
   FWD: 0 # Forwards (from upper level)
   latGETnl: 38842822 # GET request latency on next level
   latGETnet: 0 # GET request latency on network to next level
  l1d-2: # Filter cache stats
   fhGETS: 222809699 # Filtered GETS hits
   fhGETX: 57244195 # Filtered GETX hits
   hGETS: 14815525 # GETS hits
   hGETX: 13504093 # GETX hits
   mGETS: 1799213 # GETS misses
   mGETXIM: 1899409 # GETX I->M misses
   mGETXSM: 63745 # GETX S->M misses (upgrade misses)
   PUTS: 0 # Clean evictions (from lower level)
   PUTX: 0 # Dirty evictions (from lower level)
   INV: 124133 # Invalidates (from upper level)
   INVX: 43560 # Downgrades (from upper level)
   FWD: 0 # Forwards (from upper level)
   latGETnl: 39812687 # GET request latency on next level
   latGETnet: 0 # GET request latency on network to next level
  l1d-3: # Filter cache stats
   fhGETS: 222880045 # Filtered GETS hits
   fhGETX: 55787933 # Filtered GETX hits
   hGETS: 19284403 # GETS hits
   hGETX: 16306185 # GETX hits
   mGETS: 1806299 # GETS misses
   mGETXIM: 1927143 # GETX I->M misses
   mGETXSM: 49639 # GETX S->M misses (upgrade misses)
   PUTS: 0 # Clean evictions (from lower level)
   PUTX: 0 # Dirty evictions (from lower level)
   INV: 96727 # Invalidates (from upper level)
   INVX: 33317 # Downgrades (from upper level)
   FWD: 0 # Forwards (from upper level)
   latGETnl: 37562992 # GET request latency on next level
   latGETnet: 0 # GET request latency on network to next level
  l1d-4: # Filter cache stats
   fhGETS: 221450190 # Filtered GETS hits
   fhGETX: 54639073 # Filtered GETX hits
   hGETS: 15354762 # GETS hits
   hGETX: 15803526 # GETX hits
   mGETS: 1705530 # GETS misses
   mGETXIM: 1929917 # GETX I->M misses
   mGETXSM: 64824 # GETX S->M misses (upgrade misses)
   PUTS: 0 # Clean evictions (from lower level)
   PUTX: 0 # Dirty evictions (from lower level)
   INV: 130199 # Invalidates (from upper level)
   INVX: 43529 # Downgrades (from upper level)
   FWD: 0 # Forwards (from upper level)
   latGETnl: 39581786 # GET request latency on next level
   latGETnet: 0 # GET request latency on network to next level
  l1d-5: # Filter cache stats
   fhGETS: 222347957 # Filtered GETS hits
   fhGETX: 54964646 # Filtered GETX hits
   hGETS: 16279545 # GETS hits
   hGETX: 16087118 # GETX hits
   mGETS: 1775684 # GETS misses
   mGETXIM: 1880352 # GETX I->M misses
   mGETXSM: 60752 # GETX S->M misses (upgrade misses)
   PUTS: 0 # Clean evictions (from lower level)
   PUTX: 0 # Dirty evictions (from lower level)
   INV: 121840 # Invalidates (from upper level)
   INVX: 43439 # Downgrades (from upper level)
   FWD: 0 # Forwards (from upper level)
   latGETnl: 38720179 # GET request latency on next level
   latGETnet: 0 # GET request latency on network to next level
 l2: # Cache stats
  l2-0: # Cache stats
   hGETS: 1759512 # GETS hits
   hGETX: 1733689 # GETX hits
   mGETS: 75918 # GETS misses
   mGETXIM: 229871 # GETX I->M misses
   mGETXSM: 69053 # GETX S->M misses (upgrade misses)
   PUTS: 1710266 # Clean evictions (from lower level)
   PUTX: 1944362 # Dirty evictions (from lower level)
   INV: 303934 # Invalidates (from upper level)
   INVX: 68758 # Downgrades (from upper level)
   FWD: 0 # Forwards (from upper level)
   latGETnl: 10170913 # GET request latency on next level
   latGETnet: 0 # GET request latency on network to next level
  l2-1: # Cache stats
   hGETS: 1739850 # GETS hits
   hGETX: 1734162 # GETX hits
   mGETS: 67643 # GETS misses
   mGETXIM: 203314 # GETX I->M misses
   mGETXSM: 61636 # GETX S->M misses (upgrade misses)
   PUTS: 1697639 # Clean evictions (from lower level)
   PUTX: 1933903 # Dirty evictions (from lower level)
   INV: 269150 # Invalidates (from upper level)
   INVX: 62792 # Downgrades (from upper level)
   FWD: 0 # Forwards (from upper level)
   latGETnl: 9056411 # GET request latency on next level
   latGETnet: 0 # GET request latency on network to next level
  l2-2: # Cache stats
   hGETS: 1800321 # GETS hits
   hGETX: 1678302 # GETX hits
   mGETS: 76388 # GETS misses
   mGETXIM: 219853 # GETX I->M misses
   mGETXSM: 64999 # GETX S->M misses (upgrade misses)
   PUTS: 1755342 # Clean evictions (from lower level)
   PUTX: 1895760 # Dirty evictions (from lower level)
   INV: 294736 # Invalidates (from upper level)
   INVX: 66043 # Downgrades (from upper level)
   FWD: 0 # Forwards (from upper level)
   latGETnl: 9723145 # GET request latency on next level
   latGETnet: 0 # GET request latency on network to next level
  l2-3: # Cache stats
   hGETS: 1831710 # GETS hits
   hGETX: 1762779 # GETX hits
   mGETS: 54141 # GETS misses
   mGETXIM: 163493 # GETX I->M misses
   mGETXSM: 50510 # GETX S->M misses (upgrade misses)
   PUTS: 1768139 # Clean evictions (from lower level)
   PUTX: 1947183 # Dirty evictions (from lower level)
   INV: 216083 # Invalidates (from upper level)
   INVX: 50974 # Downgrades (from upper level)
   FWD: 0 # Forwards (from upper level)
   latGETnl: 7314905 # GET request latency on next level
   latGETnet: 0 # GET request latency on network to next level
  l2-4: # Cache stats
   hGETS: 1706967 # GETS hits
   hGETX: 1700087 # GETX hits
   mGETS: 76524 # GETS misses
   mGETXIM: 228515 # GETX I->M misses
   mGETXSM: 66139 # GETX S->M misses (upgrade misses)
   PUTS: 1667979 # Clean evictions (from lower level)
   PUTX: 1914310 # Dirty evictions (from lower level)
   INV: 303349 # Invalidates (from upper level)
   INVX: 67055 # Downgrades (from upper level)
   FWD: 0 # Forwards (from upper level)
   latGETnl: 10002950 # GET request latency on next level
   latGETnet: 0 # GET request latency on network to next level
  l2-5: # Cache stats
   hGETS: 1785909 # GETS hits
   hGETX: 1675130 # GETX hits
   mGETS: 67511 # GETS misses
   mGETXIM: 203887 # GETX I->M misses
   mGETXSM: 62087 # GETX S->M misses (upgrade misses)
   PUTS: 1735076 # Clean evictions (from lower level)
   PUTX: 1875930 # Dirty evictions (from lower level)
   INV: 269708 # Invalidates (from upper level)
   INVX: 63087 # Downgrades (from upper level)
   FWD: 0 # Forwards (from upper level)
   latGETnl: 8994295 # GET request latency on next level
   latGETnet: 0 # GET request latency on network to next level
 l3: # Cache stats
  l3-0: # Cache stats
   hGETS: 416722 # GETS hits
   hGETX: 1619217 # GETX hits
   mGETS: 1403 # GETS misses
   mGETXIM: 4140 # GETX I->M misses
   mGETXSM: 0 # GETX S->M misses (upgrade misses)
   PUTS: 0 # Clean evictions (from lower level)
   PUTX: 0 # Dirty evictions (from lower level)
   INV: 0 # Invalidates (from upper level)
   INVX: 0 # Downgrades (from upper level)
   FWD: 0 # Forwards (from upper level)
   latGETnl: 684301 # GET request latency on next level
   latGETnet: 0 # GET request latency on network to next level
 mem: # Memory controller stats
  mem-0: # Memory controller stats
   rd: 5543 # Read requests
   wr: 0 # Write requests
   rdlat: 684301 # Total latency experienced by read requests
   wrlat: 0 # Total latency experienced by write requests
   load: 71 # Sum of load factors (0-100) per update
   ups: 62 # Number of latency updates
   clampedLoads: 0 # Number of updates where the load was clamped to 95%
 sched: # Scheduler stats
  thCr: 6 # Threads created
  thFn: 0 # Threads finished
  schedEvs: 6 # Schedule events
  waitEvs: 0 # Wait events
  handoffEvs: 0 # Handoff events
  sleepEvs: 0 # Sleep events
  idlePhases: 0 # Phases with no thread active
  idlePeriods: 0 # Periods with no thread active
  occHist: # Occupancy histogram
   0: 0
   1: 0
   2: 1
   3: 1
   4: 0
   5: 0
   6: 5370
  rqSzHist: # Run queue size histogram
   0: 5372
   1: 0
   2: 0
   3: 0
   4: 0
   5: 0
   6: 0
   7: 0
   8: 0
   9: 0
   10: 0
   11: 0
   12: 0
   13: 0
   14: 0
   15: 0
   16: 0
 heartbeats: # Per-process heartbeats
  0: 0
  1: 0
  2: 0
  3: 0
  4: 0
  5: 0
  6: 0
  7: 0
  8: 0
  9: 0
  10: 0
  11: 0
  12: 0
  13: 0
  14: 0
  15: 0
  16: 0
  17: 0
  18: 0
  19: 0
  20: 0
  21: 0
  22: 0
  23: 0
  24: 0
  25: 0
  26: 0
  27: 0
  28: 0
  29: 0
  30: 0
  31: 0
  32: 0
  33: 0
  34: 0
  35: 0
  36: 0
  37: 0
  38: 0
  39: 0
  40: 0
  41: 0
  42: 0
  43: 0
  44: 0
  45: 0
  46: 0
  47: 0
  48: 0
  49: 0
  50: 0
  51: 0
  52: 0
  53: 0
  54: 0
  55: 0
  56: 0
  57: 0
  58: 0
  59: 0
  60: 0
  61: 0
  62: 0
  63: 0
===
