# zsim stats
===
root: # Stats
 contention: # Contention simulation stats
  domain-0: # Domain stats
   time: 2011747689 # Weave simulation time
 time: # Simulator time breakdown
  init: 19976753637
  bound: 1790921322750
  weave: 3703349903
  ff: 0
 trigger: 20000 # Reason for this stats dump
 phase: 39705 # Simulated phases
 core: # Core stats
  core-0: # Core stats
   cycles: 3970397062 # Simulated unhalted cycles
   cCycles: 0 # Cycles due to contention stalls
   instrs: 622464279 # Simulated instructions
   uops: 637317697 # Retired micro-ops
   bbls: 99995665 # Basic blocks
   approxInstrs: 7560058 # Instrs with approx uop decoding
   mispredBranches: 5350 # Mispredicted branches
   fetchStalls: 954749 # Fetch stalls
   decodeStalls: 161634285 # Decode stalls
   issueStalls: 16513811 # Issue stalls
  core-1: # Core stats
   cycles: 3969725912 # Simulated unhalted cycles
   cCycles: 0 # Cycles due to contention stalls
   instrs: 625080623 # Simulated instructions
   uops: 639794224 # Retired micro-ops
   bbls: 100479155 # Basic blocks
   approxInstrs: 7600114 # Instrs with approx uop decoding
   mispredBranches: 5385 # Mispredicted branches
   fetchStalls: 1628946 # Fetch stalls
   decodeStalls: 162238775 # Decode stalls
   issueStalls: 16544492 # Issue stalls
  core-2: # Core stats
   cycles: 3970072694 # Simulated unhalted cycles
   cCycles: 0 # Cycles due to contention stalls
   instrs: 614471060 # Simulated instructions
   uops: 628464409 # Retired micro-ops
   bbls: 98917736 # Basic blocks
   approxInstrs: 7480089 # Instrs with approx uop decoding
   mispredBranches: 5170 # Mispredicted branches
   fetchStalls: 1876291 # Fetch stalls
   decodeStalls: 159216162 # Decode stalls
   issueStalls: 16062345 # Issue stalls
  core-3: # Core stats
   cycles: 3970271925 # Simulated unhalted cycles
   cCycles: 0 # Cycles due to contention stalls
   instrs: 622342331 # Simulated instructions
   uops: 637856625 # Retired micro-ops
   bbls: 99782269 # Basic blocks
   approxInstrs: 7540100 # Instrs with approx uop decoding
   mispredBranches: 5530 # Mispredicted branches
   fetchStalls: 1506216 # Fetch stalls
   decodeStalls: 161961030 # Decode stalls
   issueStalls: 16526521 # Issue stalls
  core-4: # Core stats
   cycles: 3970125779 # Simulated unhalted cycles
   cCycles: 0 # Cycles due to contention stalls
   instrs: 631234837 # Simulated instructions
   uops: 645761095 # Retired micro-ops
   bbls: 101567228 # Basic blocks
   approxInstrs: 7680100 # Instrs with approx uop decoding
   mispredBranches: 5279 # Mispredicted branches
   fetchStalls: 5429524 # Fetch stalls
   decodeStalls: 163641363 # Decode stalls
   issueStalls: 20508204 # Issue stalls
  core-5: # Core stats
   cycles: 3970102556 # Simulated unhalted cycles
   cCycles: 0 # Cycles due to contention stalls
   instrs: 625917712 # Simulated instructions
   uops: 640660031 # Retired micro-ops
   bbls: 100626642 # Basic blocks
   approxInstrs: 7600101 # Instrs with approx uop decoding
   mispredBranches: 5483 # Mispredicted branches
   fetchStalls: 2256772 # Fetch stalls
   decodeStalls: 162463431 # Decode stalls
   issueStalls: 16701857 # Issue stalls
  core-6: # Core stats
   cycles: 3970261919 # Simulated unhalted cycles
   cCycles: 0 # Cycles due to contention stalls
   instrs: 630182041 # Simulated instructions
   uops: 645010796 # Retired micro-ops
   bbls: 101299430 # Basic blocks
   approxInstrs: 7660117 # Instrs with approx uop decoding
   mispredBranches: 5404 # Mispredicted branches
   fetchStalls: 774133 # Fetch stalls
   decodeStalls: 163544389 # Decode stalls
   issueStalls: 16500375 # Issue stalls
  core-7: # Core stats
   cycles: 3970323897 # Simulated unhalted cycles
   cCycles: 0 # Cycles due to contention stalls
   instrs: 628515636 # Simulated instructions
   uops: 643969125 # Retired micro-ops
   bbls: 100838108 # Basic blocks
   approxInstrs: 7620060 # Instrs with approx uop decoding
   mispredBranches: 5536 # Mispredicted branches
   fetchStalls: 1346195 # Fetch stalls
   decodeStalls: 163476731 # Decode stalls
   issueStalls: 16990033 # Issue stalls
 l1i: # Cache stats
  l1i-0: # Filter cache stats
   fhGETS: 108221113 # Filtered GETS hits
   fhGETX: 0 # Filtered GETX hits
   hGETS: 489 # GETS hits
   hGETX: 0 # GETX hits
   mGETS: 17118 # GETS misses
   mGETXIM: 0 # GETX I->M misses
   mGETXSM: 0 # GETX S->M misses (upgrade misses)
   PUTS: 0 # Clean evictions (from lower level)
   PUTX: 0 # Dirty evictions (from lower level)
   INV: 17113 # Invalidates (from upper level)
   INVX: 0 # Downgrades (from upper level)
   FWD: 0 # Forwards (from upper level)
   latGETnl: 1151670 # GET request latency on next level
   latGETnet: 0 # GET request latency on network to next level
  l1i-1: # Filter cache stats
   fhGETS: 108752206 # Filtered GETS hits
   fhGETX: 0 # Filtered GETX hits
   hGETS: 922 # GETS hits
   hGETX: 0 # GETX hits
   mGETS: 17168 # GETS misses
   mGETXIM: 0 # GETX I->M misses
   mGETXSM: 0 # GETX S->M misses (upgrade misses)
   PUTS: 0 # Clean evictions (from lower level)
   PUTX: 0 # Dirty evictions (from lower level)
   INV: 17164 # Invalidates (from upper level)
   INVX: 0 # Downgrades (from upper level)
   FWD: 0 # Forwards (from upper level)
   latGETnl: 2006147 # GET request latency on next level
   latGETnet: 0 # GET request latency on network to next level
  l1i-2: # Filter cache stats
   fhGETS: 107041893 # Filtered GETS hits
   fhGETX: 0 # Filtered GETX hits
   hGETS: 749 # GETS hits
   hGETX: 0 # GETX hits
   mGETS: 17432 # GETS misses
   mGETXIM: 0 # GETX I->M misses
   mGETXSM: 0 # GETX S->M misses (upgrade misses)
   PUTS: 0 # Clean evictions (from lower level)
   PUTX: 0 # Dirty evictions (from lower level)
   INV: 17427 # Invalidates (from upper level)
   INVX: 0 # Downgrades (from upper level)
   FWD: 0 # Forwards (from upper level)
   latGETnl: 2370122 # GET request latency on next level
   latGETnet: 0 # GET request latency on network to next level
  l1i-3: # Filter cache stats
   fhGETS: 108008177 # Filtered GETS hits
   fhGETX: 0 # Filtered GETX hits
   hGETS: 811 # GETS hits
   hGETX: 0 # GETX hits
   mGETS: 17088 # GETS misses
   mGETXIM: 0 # GETX I->M misses
   mGETXSM: 0 # GETX S->M misses (upgrade misses)
   PUTS: 0 # Clean evictions (from lower level)
   PUTX: 0 # Dirty evictions (from lower level)
   INV: 17083 # Invalidates (from upper level)
   INVX: 0 # Downgrades (from upper level)
   FWD: 0 # Forwards (from upper level)
   latGETnl: 1840264 # GET request latency on next level
   latGETnet: 0 # GET request latency on network to next level
  l1i-4: # Filter cache stats
   fhGETS: 109911918 # Filtered GETS hits
   fhGETX: 0 # Filtered GETX hits
   hGETS: 832 # GETS hits
   hGETX: 0 # GETX hits
   mGETS: 17301 # GETS misses
   mGETXIM: 0 # GETX I->M misses
   mGETXSM: 0 # GETX S->M misses (upgrade misses)
   PUTS: 0 # Clean evictions (from lower level)
   PUTX: 0 # Dirty evictions (from lower level)
   INV: 17299 # Invalidates (from upper level)
   INVX: 0 # Downgrades (from upper level)
   FWD: 0 # Forwards (from upper level)
   latGETnl: 7105115 # GET request latency on next level
   latGETnet: 0 # GET request latency on network to next level
  l1i-5: # Filter cache stats
   fhGETS: 108902116 # Filtered GETS hits
   fhGETX: 0 # Filtered GETX hits
   hGETS: 872 # GETS hits
   hGETX: 0 # GETX hits
   mGETS: 17282 # GETS misses
   mGETXIM: 0 # GETX I->M misses
   mGETXSM: 0 # GETX S->M misses (upgrade misses)
   PUTS: 0 # Clean evictions (from lower level)
   PUTX: 0 # Dirty evictions (from lower level)
   INV: 17272 # Invalidates (from upper level)
   INVX: 0 # Downgrades (from upper level)
   FWD: 0 # Forwards (from upper level)
   latGETnl: 2867459 # GET request latency on next level
   latGETnet: 0 # GET request latency on network to next level
  l1i-6: # Filter cache stats
   fhGETS: 109634538 # Filtered GETS hits
   fhGETX: 0 # Filtered GETX hits
   hGETS: 932 # GETS hits
   hGETX: 0 # GETX hits
   mGETS: 17296 # GETS misses
   mGETXIM: 0 # GETX I->M misses
   mGETXSM: 0 # GETX S->M misses (upgrade misses)
   PUTS: 0 # Clean evictions (from lower level)
   PUTX: 0 # Dirty evictions (from lower level)
   INV: 17291 # Invalidates (from upper level)
   INVX: 0 # Downgrades (from upper level)
   FWD: 0 # Forwards (from upper level)
   latGETnl: 880721 # GET request latency on next level
   latGETnet: 0 # GET request latency on network to next level
  l1i-7: # Filter cache stats
   fhGETS: 109154126 # Filtered GETS hits
   fhGETX: 0 # Filtered GETX hits
   hGETS: 501 # GETS hits
   hGETX: 0 # GETX hits
   mGETS: 17289 # GETS misses
   mGETXIM: 0 # GETX I->M misses
   mGETXSM: 0 # GETX S->M misses (upgrade misses)
   PUTS: 0 # Clean evictions (from lower level)
   PUTX: 0 # Dirty evictions (from lower level)
   INV: 17284 # Invalidates (from upper level)
   INVX: 0 # Downgrades (from upper level)
   FWD: 0 # Forwards (from upper level)
   latGETnl: 1613930 # GET request latency on next level
   latGETnet: 0 # GET request latency on network to next level
 l1d: # Cache stats
  l1d-0: # Filter cache stats
   fhGETS: 117023699 # Filtered GETS hits
   fhGETX: 28624113 # Filtered GETX hits
   hGETS: 2526342 # GETS hits
   hGETX: 11991191 # GETX hits
   mGETS: 24784353 # GETS misses
   mGETXIM: 4587091 # GETX I->M misses
   mGETXSM: 171 # GETX S->M misses (upgrade misses)
   PUTS: 0 # Clean evictions (from lower level)
   PUTX: 0 # Dirty evictions (from lower level)
   INV: 6043 # Invalidates (from upper level)
   INVX: 434919 # Downgrades (from upper level)
   FWD: 0 # Forwards (from upper level)
   latGETnl: 10743331858 # GET request latency on next level
   latGETnet: 0 # GET request latency on network to next level
  l1d-1: # Filter cache stats
   fhGETS: 116961161 # Filtered GETS hits
   fhGETX: 28706086 # Filtered GETX hits
   hGETS: 2732096 # GETS hits
   hGETX: 12063657 # GETX hits
   mGETS: 24906910 # GETS misses
   mGETXIM: 4607187 # GETX I->M misses
   mGETXSM: 264 # GETX S->M misses (upgrade misses)
   PUTS: 0 # Clean evictions (from lower level)
   PUTX: 0 # Dirty evictions (from lower level)
   INV: 6895 # Invalidates (from upper level)
   INVX: 426185 # Downgrades (from upper level)
   FWD: 0 # Forwards (from upper level)
   latGETnl: 11054514409 # GET request latency on next level
   latGETnet: 0 # GET request latency on network to next level
  l1d-2: # Filter cache stats
   fhGETS: 114855585 # Filtered GETS hits
   fhGETX: 28066421 # Filtered GETX hits
   hGETS: 2435697 # GETS hits
   hGETX: 11839065 # GETX hits
   mGETS: 24504899 # GETS misses
   mGETXIM: 4516640 # GETX I->M misses
   mGETXSM: 211 # GETX S->M misses (upgrade misses)
   PUTS: 0 # Clean evictions (from lower level)
   PUTX: 0 # Dirty evictions (from lower level)
   INV: 6025 # Invalidates (from upper level)
   INVX: 445285 # Downgrades (from upper level)
   FWD: 0 # Forwards (from upper level)
   latGETnl: 10513887106 # GET request latency on next level
   latGETnet: 0 # GET request latency on network to next level
  l1d-3: # Filter cache stats
   fhGETS: 117301333 # Filtered GETS hits
   fhGETX: 28814869 # Filtered GETX hits
   hGETS: 2840161 # GETS hits
   hGETX: 12010961 # GETX hits
   mGETS: 24740722 # GETS misses
   mGETXIM: 4607152 # GETX I->M misses
   mGETXSM: 178 # GETX S->M misses (upgrade misses)
   PUTS: 0 # Clean evictions (from lower level)
   PUTX: 0 # Dirty evictions (from lower level)
   INV: 6809 # Invalidates (from upper level)
   INVX: 144061 # Downgrades (from upper level)
   FWD: 0 # Forwards (from upper level)
   latGETnl: 10015607722 # GET request latency on next level
   latGETnet: 0 # GET request latency on network to next level
  l1d-4: # Filter cache stats
   fhGETS: 113984963 # Filtered GETS hits
   fhGETX: 28809163 # Filtered GETX hits
   hGETS: 2837493 # GETS hits
   hGETX: 16048826 # GETX hits
   mGETS: 29014378 # GETS misses
   mGETXIM: 802167 # GETX I->M misses
   mGETXSM: 15659 # GETX S->M misses (upgrade misses)
   PUTS: 0 # Clean evictions (from lower level)
   PUTX: 0 # Dirty evictions (from lower level)
   INV: 14999 # Invalidates (from upper level)
   INVX: 900179 # Downgrades (from upper level)
   FWD: 0 # Forwards (from upper level)
   latGETnl: 10474317972 # GET request latency on next level
   latGETnet: 0 # GET request latency on network to next level
  l1d-5: # Filter cache stats
   fhGETS: 117449163 # Filtered GETS hits
   fhGETX: 28777810 # Filtered GETX hits
   hGETS: 2502160 # GETS hits
   hGETX: 12041143 # GETX hits
   mGETS: 24935244 # GETS misses
   mGETXIM: 4616768 # GETX I->M misses
   mGETXSM: 272 # GETX S->M misses (upgrade misses)
   PUTS: 0 # Clean evictions (from lower level)
   PUTX: 0 # Dirty evictions (from lower level)
   INV: 6178 # Invalidates (from upper level)
   INVX: 625073 # Downgrades (from upper level)
   FWD: 0 # Forwards (from upper level)
   latGETnl: 10527451789 # GET request latency on next level
   latGETnet: 0 # GET request latency on network to next level
  l1d-6: # Filter cache stats
   fhGETS: 117989537 # Filtered GETS hits
   fhGETX: 28902637 # Filtered GETX hits
   hGETS: 2731198 # GETS hits
   hGETX: 12166827 # GETX hits
   mGETS: 25119744 # GETS misses
   mGETXIM: 4647197 # GETX I->M misses
   mGETXSM: 8727 # GETX S->M misses (upgrade misses)
   PUTS: 0 # Clean evictions (from lower level)
   PUTX: 0 # Dirty evictions (from lower level)
   INV: 21418 # Invalidates (from upper level)
   INVX: 382130 # Downgrades (from upper level)
   FWD: 0 # Forwards (from upper level)
   latGETnl: 11188536189 # GET request latency on next level
   latGETnet: 0 # GET request latency on network to next level
  l1d-7: # Filter cache stats
   fhGETS: 118302680 # Filtered GETS hits
   fhGETX: 29103695 # Filtered GETX hits
   hGETS: 2722875 # GETS hits
   hGETX: 12091503 # GETX hits
   mGETS: 25002461 # GETS misses
   mGETXIM: 4657180 # GETX I->M misses
   mGETXSM: 258 # GETX S->M misses (upgrade misses)
   PUTS: 0 # Clean evictions (from lower level)
   PUTX: 0 # Dirty evictions (from lower level)
   INV: 6889 # Invalidates (from upper level)
   INVX: 586274 # Downgrades (from upper level)
   FWD: 0 # Forwards (from upper level)
   latGETnl: 10144858446 # GET request latency on next level
   latGETnet: 0 # GET request latency on network to next level
 l2: # Cache stats
  l2-0: # Cache stats
   hGETS: 43 # GETS hits
   hGETX: 4 # GETX hits
   mGETS: 24801428 # GETS misses
   mGETXIM: 4587087 # GETX I->M misses
   mGETXSM: 171 # GETX S->M misses (upgrade misses)
   PUTS: 13437128 # Clean evictions (from lower level)
   PUTX: 15927761 # Dirty evictions (from lower level)
   INV: 176004 # Invalidates (from upper level)
   INVX: 538206 # Downgrades (from upper level)
   FWD: 0 # Forwards (from upper level)
   latGETnl: 10509373664 # GET request latency on next level
   latGETnet: 0 # GET request latency on network to next level
  l2-1: # Cache stats
   hGETS: 124 # GETS hits
   hGETX: 1 # GETX hits
   mGETS: 24923954 # GETS misses
   mGETXIM: 4607186 # GETX I->M misses
   mGETXSM: 264 # GETX S->M misses (upgrade misses)
   PUTS: 13500959 # Clean evictions (from lower level)
   PUTX: 16005731 # Dirty evictions (from lower level)
   INV: 116289 # Invalidates (from upper level)
   INVX: 576743 # Downgrades (from upper level)
   FWD: 0 # Forwards (from upper level)
   latGETnl: 10820268324 # GET request latency on next level
   latGETnet: 0 # GET request latency on network to next level
  l2-2: # Cache stats
   hGETS: 37 # GETS hits
   hGETX: 6 # GETX hits
   mGETS: 24522294 # GETS misses
   mGETXIM: 4516634 # GETX I->M misses
   mGETXSM: 211 # GETX S->M misses (upgrade misses)
   PUTS: 13277348 # Clean evictions (from lower level)
   PUTX: 15737654 # Dirty evictions (from lower level)
   INV: 162322 # Invalidates (from upper level)
   INVX: 643332 # Downgrades (from upper level)
   FWD: 0 # Forwards (from upper level)
   latGETnl: 10283943772 # GET request latency on next level
   latGETnet: 0 # GET request latency on network to next level
  l2-3: # Cache stats
   hGETS: 268 # GETS hits
   hGETX: 0 # GETX hits
   mGETS: 24757542 # GETS misses
   mGETXIM: 4607152 # GETX I->M misses
   mGETXSM: 178 # GETX S->M misses (upgrade misses)
   PUTS: 13422359 # Clean evictions (from lower level)
   PUTX: 15918194 # Dirty evictions (from lower level)
   INV: 408223 # Invalidates (from upper level)
   INVX: 332910 # Downgrades (from upper level)
   FWD: 0 # Forwards (from upper level)
   latGETnl: 9782526866 # GET request latency on next level
   latGETnet: 0 # GET request latency on network to next level
  l2-4: # Cache stats
   hGETS: 2 # GETS hits
   hGETX: 2 # GETX hits
   mGETS: 29031677 # GETS misses
   mGETXIM: 802165 # GETX I->M misses
   mGETXSM: 15659 # GETX S->M misses (upgrade misses)
   PUTS: 13638068 # Clean evictions (from lower level)
   PUTX: 16162966 # Dirty evictions (from lower level)
   INV: 167096 # Invalidates (from upper level)
   INVX: 1129247 # Downgrades (from upper level)
   FWD: 0 # Forwards (from upper level)
   latGETnl: 10242627047 # GET request latency on next level
   latGETnet: 0 # GET request latency on network to next level
  l2-5: # Cache stats
   hGETS: 42 # GETS hits
   hGETX: 27 # GETX hits
   mGETS: 24952484 # GETS misses
   mGETXIM: 4616741 # GETX I->M misses
   mGETXSM: 272 # GETX S->M misses (upgrade misses)
   PUTS: 13525637 # Clean evictions (from lower level)
   PUTX: 16019685 # Dirty evictions (from lower level)
   INV: 181995 # Invalidates (from upper level)
   INVX: 833108 # Downgrades (from upper level)
   FWD: 0 # Forwards (from upper level)
   latGETnl: 10293762720 # GET request latency on next level
   latGETnet: 0 # GET request latency on network to next level
  l2-6: # Cache stats
   hGETS: 3 # GETS hits
   hGETX: 0 # GETX hits
   mGETS: 25137037 # GETS misses
   mGETXIM: 4647197 # GETX I->M misses
   mGETXSM: 8727 # GETX S->M misses (upgrade misses)
   PUTS: 13606962 # Clean evictions (from lower level)
   PUTX: 16138050 # Dirty evictions (from lower level)
   INV: 149456 # Invalidates (from upper level)
   INVX: 486608 # Downgrades (from upper level)
   FWD: 0 # Forwards (from upper level)
   latGETnl: 10951073198 # GET request latency on next level
   latGETnet: 0 # GET request latency on network to next level
  l2-7: # Cache stats
   hGETS: 9 # GETS hits
   hGETX: 3 # GETX hits
   mGETS: 25019741 # GETS misses
   mGETXIM: 4657177 # GETX I->M misses
   mGETXSM: 258 # GETX S->M misses (upgrade misses)
   PUTS: 13564147 # Clean evictions (from lower level)
   PUTX: 16088093 # Dirty evictions (from lower level)
   INV: 44517 # Invalidates (from upper level)
   INVX: 681164 # Downgrades (from upper level)
   FWD: 0 # Forwards (from upper level)
   latGETnl: 9909054872 # GET request latency on next level
   latGETnet: 0 # GET request latency on network to next level
 l3: # Cache stats
  l3-0: # Cache stats
   hGETS: 136344379 # GETS hits
   hGETX: 31822716 # GETX hits
   mGETS: 66801778 # GETS misses
   mGETXIM: 1244363 # GETX I->M misses
   mGETXSM: 0 # GETX S->M misses (upgrade misses)
   PUTS: 107112284 # Clean evictions (from lower level)
   PUTX: 127603823 # Dirty evictions (from lower level)
   INV: 0 # Invalidates (from upper level)
   INVX: 0 # Downgrades (from upper level)
   FWD: 0 # Forwards (from upper level)
   latGETnl: 78719144651 # GET request latency on next level
   latGETnet: 0 # GET request latency on network to next level
 mem: # Memory controller stats
  mem-0: # Memory controller stats
   rd: 68046141 # Read requests
   wr: 22016256 # Write requests
   rdlat: 78719144651 # Total latency experienced by read requests
   wrlat: 26563305805 # Total latency experienced by write requests
   load: 3733459 # Sum of load factors (0-100) per update
   ups: 39704 # Number of latency updates
   clampedLoads: 35053 # Number of updates where the load was clamped to 95%
 sched: # Scheduler stats
  thCr: 8 # Threads created
  thFn: 0 # Threads finished
  schedEvs: 8 # Schedule events
  waitEvs: 0 # Wait events
  handoffEvs: 0 # Handoff events
  sleepEvs: 0 # Sleep events
  idlePhases: 0 # Phases with no thread active
  idlePeriods: 0 # Periods with no thread active
  occHist: # Occupancy histogram
   0: 0
   1: 0
   2: 1
   3: 0
   4: 0
   5: 0
   6: 0
   7: 0
   8: 39704
  rqSzHist: # Run queue size histogram
   0: 39705
   1: 0
   2: 0
   3: 0
   4: 0
   5: 0
   6: 0
   7: 0
   8: 0
   9: 0
   10: 0
   11: 0
   12: 0
   13: 0
   14: 0
   15: 0
   16: 0
 heartbeats: # Per-process heartbeats
  0: 0
  1: 0
  2: 0
  3: 0
  4: 0
  5: 0
  6: 0
  7: 0
  8: 0
  9: 0
  10: 0
  11: 0
  12: 0
  13: 0
  14: 0
  15: 0
  16: 0
  17: 0
  18: 0
  19: 0
  20: 0
  21: 0
  22: 0
  23: 0
  24: 0
  25: 0
  26: 0
  27: 0
  28: 0
  29: 0
  30: 0
  31: 0
  32: 0
  33: 0
  34: 0
  35: 0
  36: 0
  37: 0
  38: 0
  39: 0
  40: 0
  41: 0
  42: 0
  43: 0
  44: 0
  45: 0
  46: 0
  47: 0
  48: 0
  49: 0
  50: 0
  51: 0
  52: 0
  53: 0
  54: 0
  55: 0
  56: 0
  57: 0
  58: 0
  59: 0
  60: 0
  61: 0
  62: 0
  63: 0
===
